Hydrogen
Z = 1

ASCII format
__________________________________

   Energy        μ/ρ        μen/ρ 
    (MeV)      (cm2/g)     (cm2/g)
__________________________________

 1.00000E-03  7.217E+00  6.820E+00 
 1.50000E-03  2.148E+00  1.752E+00 
 2.00000E-03  1.059E+00  6.643E-01 
 3.00000E-03  5.612E-01  1.693E-01 
 4.00000E-03  4.546E-01  6.549E-02 
 5.00000E-03  4.193E-01  3.278E-02 
 6.00000E-03  4.042E-01  1.996E-02 
 8.00000E-03  3.914E-01  1.160E-02 
 1.00000E-02  3.854E-01  9.849E-03 
 1.50000E-02  3.764E-01  1.102E-02 
 2.00000E-02  3.695E-01  1.355E-02 
 3.00000E-02  3.570E-01  1.863E-02 
 4.00000E-02  3.458E-01  2.315E-02 
 5.00000E-02  3.355E-01  2.709E-02 
 6.00000E-02  3.260E-01  3.053E-02 
 8.00000E-02  3.091E-01  3.620E-02 
 1.00000E-01  2.944E-01  4.063E-02 
 1.50000E-01  2.651E-01  4.813E-02 
 2.00000E-01  2.429E-01  5.254E-02 
 3.00000E-01  2.112E-01  5.695E-02 
 4.00000E-01  1.893E-01  5.860E-02 
 5.00000E-01  1.729E-01  5.900E-02 
 6.00000E-01  1.599E-01  5.875E-02 
 8.00000E-01  1.405E-01  5.739E-02 
 1.00000E+00  1.263E-01  5.556E-02 
 1.25000E+00  1.129E-01  5.311E-02 
 1.50000E+00  1.027E-01  5.075E-02 
 2.00000E+00  8.769E-02  4.650E-02 
 3.00000E+00  6.921E-02  3.992E-02 
 4.00000E+00  5.806E-02  3.523E-02 
 5.00000E+00  5.049E-02  3.174E-02 
 6.00000E+00  4.498E-02  2.905E-02 
 8.00000E+00  3.746E-02  2.515E-02 
 1.00000E+01  3.254E-02  2.247E-02 
 1.50000E+01  2.539E-02  1.837E-02 
 2.00000E+01  2.153E-02  1.606E-02
#
Helium
Z = 2

ASCII format
_________________________________

  Energy        μ/ρ        μen/ρ 
   (MeV)      (cm2/g)     (cm2/g)
_________________________________

1.00000E-03  6.084E+01  6.045E+01 
1.50000E-03  1.676E+01  1.638E+01 
2.00000E-03  6.863E+00  6.503E+00 
3.00000E-03  2.007E+00  1.681E+00 
4.00000E-03  9.329E-01  6.379E-01 
5.00000E-03  5.766E-01  3.061E-01 
6.00000E-03  4.195E-01  1.671E-01 
8.00000E-03  2.933E-01  6.446E-02 
1.00000E-02  2.476E-01  3.260E-02 
1.50000E-02  2.092E-01  1.246E-02 
2.00000E-02  1.960E-01  9.410E-03 
3.00000E-02  1.838E-01  1.003E-02 
4.00000E-02  1.763E-01  1.190E-02 
5.00000E-02  1.703E-01  1.375E-02 
6.00000E-02  1.651E-01  1.544E-02 
8.00000E-02  1.562E-01  1.826E-02 
1.00000E-01  1.486E-01  2.047E-02 
1.50000E-01  1.336E-01  2.424E-02 
2.00000E-01  1.224E-01  2.647E-02 
3.00000E-01  1.064E-01  2.868E-02 
4.00000E-01  9.535E-02  2.951E-02 
5.00000E-01  8.707E-02  2.971E-02 
6.00000E-01  8.054E-02  2.959E-02 
8.00000E-01  7.076E-02  2.890E-02 
1.00000E+00  6.362E-02  2.797E-02 
1.25000E+00  5.688E-02  2.674E-02 
1.50000E+00  5.173E-02  2.555E-02 
2.00000E+00  4.422E-02  2.343E-02 
3.00000E+00  3.503E-02  2.019E-02 
4.00000E+00  2.949E-02  1.790E-02 
5.00000E+00  2.577E-02  1.622E-02 
6.00000E+00  2.307E-02  1.493E-02 
8.00000E+00  1.940E-02  1.308E-02 
1.00000E+01  1.703E-02  1.183E-02 
1.50000E+01  1.363E-02  9.948E-03 
2.00000E+01  1.183E-02  8.914E-03  
#
Lithium
Z = 3

ASCII format
_________________________________

  Energy        μ/ρ        μen/ρ 
   (MeV)      (cm2/g)     (cm2/g)
_________________________________

1.00000E-03  2.339E+02  2.335E+02 
1.50000E-03  6.668E+01  6.629E+01 
2.00000E-03  2.707E+01  2.672E+01 
3.00000E-03  7.549E+00  7.249E+00 
4.00000E-03  3.114E+00  2.840E+00 
5.00000E-03  1.619E+00  1.364E+00 
6.00000E-03  9.875E-01  7.477E-01 
8.00000E-03  5.054E-01  2.888E-01 
1.00000E-02  3.395E-01  1.387E-01 
1.50000E-02  2.176E-01  3.910E-02 
2.00000E-02  1.856E-01  1.885E-02 
3.00000E-02  1.644E-01  1.138E-02 
4.00000E-02  1.551E-01  1.131E-02 
5.00000E-02  1.488E-01  1.237E-02 
6.00000E-02  1.438E-01  1.361E-02 
8.00000E-02  1.356E-01  1.588E-02 
1.00000E-01  1.289E-01  1.776E-02 
1.50000E-01  1.158E-01  2.098E-02 
2.00000E-01  1.060E-01  2.290E-02 
3.00000E-01  9.210E-02  2.481E-02 
4.00000E-01  8.249E-02  2.552E-02 
5.00000E-01  7.532E-02  2.569E-02 
6.00000E-01  6.968E-02  2.559E-02 
8.00000E-01  6.121E-02  2.499E-02 
1.00000E+00  5.503E-02  2.419E-02 
1.25000E+00  4.921E-02  2.312E-02 
1.50000E+00  4.476E-02  2.210E-02 
2.00000E+00  3.830E-02  2.028E-02 
3.00000E+00  3.043E-02  1.753E-02 
4.00000E+00  2.572E-02  1.561E-02 
5.00000E+00  2.257E-02  1.422E-02 
6.00000E+00  2.030E-02  1.316E-02 
8.00000E+00  1.725E-02  1.167E-02 
1.00000E+01  1.529E-02  1.066E-02 
1.50000E+01  1.252E-02  9.182E-03 
2.00000E+01  1.109E-02  8.385E-03
#
Beryllium
Z = 4

ASCII format
_________________________________

  Energy        μ/ρ        μen/ρ 
   (MeV)      (cm2/g)     (cm2/g)
_________________________________
 
1.00000E-03  6.041E+02  6.035E+02 
1.50000E-03  1.797E+02  1.791E+02 
2.00000E-03  7.469E+01  7.422E+01 
3.00000E-03  2.127E+01  2.090E+01 
4.00000E-03  8.685E+00  8.367E+00 
5.00000E-03  4.369E+00  4.081E+00 
6.00000E-03  2.527E+00  2.260E+00 
8.00000E-03  1.124E+00  8.839E-01 
1.00000E-02  6.466E-01  4.255E-01 
1.50000E-02  3.070E-01  1.143E-01 
2.00000E-02  2.251E-01  4.780E-02 
3.00000E-02  1.792E-01  1.898E-02 
4.00000E-02  1.640E-01  1.438E-02 
5.00000E-02  1.554E-01  1.401E-02 
6.00000E-02  1.493E-01  1.468E-02 
8.00000E-02  1.401E-01  1.658E-02 
1.00000E-01  1.328E-01  1.836E-02 
1.50000E-01  1.190E-01  2.157E-02 
2.00000E-01  1.089E-01  2.353E-02 
3.00000E-01  9.463E-02  2.548E-02 
4.00000E-01  8.471E-02  2.620E-02 
5.00000E-01  7.739E-02  2.639E-02 
6.00000E-01  7.155E-02  2.627E-02 
8.00000E-01  6.286E-02  2.565E-02 
1.00000E+00  5.652E-02  2.483E-02 
1.25000E+00  5.054E-02  2.373E-02 
1.50000E+00  4.597E-02  2.268E-02 
2.00000E+00  3.938E-02  2.083E-02 
3.00000E+00  3.138E-02  1.806E-02 
4.00000E+00  2.664E-02  1.617E-02 
5.00000E+00  2.347E-02  1.479E-02 
6.00000E+00  2.121E-02  1.377E-02 
8.00000E+00  1.819E-02  1.233E-02 
1.00000E+01  1.627E-02  1.138E-02 
1.50000E+01  1.361E-02  1.001E-02 
2.00000E+01  1.227E-02  9.294E-03
#
Boron
Z = 5

ASCII format
_________________________________

  Energy        μ/ρ        μen/ρ 
   (MeV)      (cm2/g)     (cm2/g)
_________________________________

1.00000E-03  1.229E+03  1.228E+03 
1.50000E-03  3.766E+02  3.759E+02 
2.00000E-03  1.597E+02  1.591E+02 
3.00000E-03  4.667E+01  4.617E+01 
4.00000E-03  1.927E+01  1.886E+01 
5.00000E-03  9.683E+00  9.332E+00 
6.00000E-03  5.538E+00  5.223E+00 
8.00000E-03  2.346E+00  2.072E+00 
1.00000E-02  1.255E+00  1.006E+00 
1.50000E-02  4.827E-01  2.698E-01 
2.00000E-02  3.014E-01  1.084E-01 
3.00000E-02  2.063E-01  3.506E-02 
4.00000E-02  1.793E-01  2.084E-02 
5.00000E-02  1.665E-01  1.737E-02 
6.00000E-02  1.583E-01  1.680E-02 
8.00000E-02  1.472E-01  1.785E-02 
1.00000E-01  1.391E-01  1.940E-02 
1.50000E-01  1.243E-01  2.255E-02 
2.00000E-01  1.136E-01  2.453E-02 
3.00000E-01  9.862E-02  2.654E-02 
4.00000E-01  8.834E-02  2.731E-02 
5.00000E-01  8.065E-02  2.749E-02 
6.00000E-01  7.460E-02  2.737E-02 
8.00000E-01  6.549E-02  2.671E-02 
1.00000E+00  5.890E-02  2.586E-02 
1.25000E+00  5.266E-02  2.472E-02 
1.50000E+00  4.791E-02  2.362E-02 
2.00000E+00  4.108E-02  2.171E-02 
3.00000E+00  3.284E-02  1.889E-02 
4.00000E+00  2.798E-02  1.698E-02 
5.00000E+00  2.476E-02  1.562E-02 
6.00000E+00  2.248E-02  1.461E-02 
8.00000E+00  1.945E-02  1.322E-02 
1.00000E+01  1.755E-02  1.232E-02 
1.50000E+01  1.495E-02  1.104E-02
2.00000E+01  1.368E-02  1.039E-02
#
Carbon, Graphite
Z = 6

ASCII format
_________________________________

  Energy        μ/ρ        μen/ρ 
   (MeV)      (cm2/g)     (cm2/g)
_________________________________

1.00000E-03  2.211E+03  2.209E+03 
1.50000E-03  7.002E+02  6.990E+02 
2.00000E-03  3.026E+02  3.016E+02 
3.00000E-03  9.033E+01  8.963E+01 
4.00000E-03  3.778E+01  3.723E+01 
5.00000E-03  1.912E+01  1.866E+01 
6.00000E-03  1.095E+01  1.054E+01 
8.00000E-03  4.576E+00  4.242E+00 
1.00000E-02  2.373E+00  2.078E+00 
1.50000E-02  8.071E-01  5.627E-01 
2.00000E-02  4.420E-01  2.238E-01 
3.00000E-02  2.562E-01  6.614E-02 
4.00000E-02  2.076E-01  3.343E-02 
5.00000E-02  1.871E-01  2.397E-02 
6.00000E-02  1.753E-01  2.098E-02 
8.00000E-02  1.610E-01  2.037E-02 
1.00000E-01  1.514E-01  2.147E-02 
1.50000E-01  1.347E-01  2.449E-02 
2.00000E-01  1.229E-01  2.655E-02 
3.00000E-01  1.066E-01  2.870E-02 
4.00000E-01  9.546E-02  2.950E-02 
5.00000E-01  8.715E-02  2.969E-02 
6.00000E-01  8.058E-02  2.956E-02 
8.00000E-01  7.076E-02  2.885E-02 
1.00000E+00  6.361E-02  2.792E-02 
1.25000E+00  5.690E-02  2.669E-02 
1.50000E+00  5.179E-02  2.551E-02 
2.00000E+00  4.442E-02  2.345E-02 
3.00000E+00  3.562E-02  2.048E-02 
4.00000E+00  3.047E-02  1.849E-02 
5.00000E+00  2.708E-02  1.710E-02 
6.00000E+00  2.469E-02  1.607E-02 
8.00000E+00  2.154E-02  1.468E-02 
1.00000E+01  1.959E-02  1.380E-02 
1.50000E+01  1.698E-02  1.258E-02 
2.00000E+01  1.575E-02  1.198E-02
#
Nitrogen
Z = 7

ASCII format
__________________________________

   Energy        μ/ρ        μen/ρ 
    (MeV)      (cm2/g)     (cm2/g)
__________________________________

1.00000E-03  3.311E+03  3.306E+03 
1.50000E-03  1.083E+03  1.080E+03 
2.00000E-03  4.769E+02  4.755E+02 
3.00000E-03  1.456E+02  1.447E+02 
4.00000E-03  6.166E+01  6.094E+01 
5.00000E-03  3.144E+01  3.086E+01 
6.00000E-03  1.809E+01  1.759E+01 
8.00000E-03  7.562E+00  7.170E+00 
1.00000E-02  3.879E+00  3.545E+00 
1.50000E-02  1.236E+00  9.715E-01 
2.00000E-02  6.178E-01  3.867E-01 
3.00000E-02  3.066E-01  1.099E-01 
4.00000E-02  2.288E-01  5.051E-02 
5.00000E-02  1.980E-01  3.217E-02 
6.00000E-02  1.817E-01  2.548E-02 
8.00000E-02  1.639E-01  2.211E-02 
1.00000E-01  1.529E-01  2.231E-02 
1.50000E-01  1.353E-01  2.472E-02 
2.00000E-01  1.233E-01  2.665E-02 
3.00000E-01  1.068E-01  2.873E-02 
4.00000E-01  9.557E-02  2.952E-02 
5.00000E-01  8.719E-02  2.969E-02 
6.00000E-01  8.063E-02  2.956E-02 
8.00000E-01  7.081E-02  2.886E-02 
1.00000E+00  6.364E-02  2.792E-02 
1.25000E+00  5.693E-02  2.669E-02 
1.50000E+00  5.180E-02  2.550E-02 
2.00000E+00  4.450E-02  2.347E-02 
3.00000E+00  3.579E-02  2.057E-02 
4.00000E+00  3.073E-02  1.867E-02 
5.00000E+00  2.742E-02  1.734E-02 
6.00000E+00  2.511E-02  1.639E-02 
8.00000E+00  2.209E-02  1.512E-02 
1.00000E+01  2.024E-02  1.434E-02 
1.50000E+01  1.782E-02  1.332E-02 
2.00000E+01  1.673E-02  1.285E-02 
#
Oxygen
Z = 8 

ASCII format
_________________________________

  Energy       μ/ρ        μen/ρ 
   (MeV)      (cm2/g)     (cm2/g)
_________________________________

1.00000E-03  4.590E+03  4.576E+03 
1.50000E-03  1.549E+03  1.545E+03 
2.00000E-03  6.949E+02  6.926E+02 
3.00000E-03  2.171E+02  2.158E+02 
4.00000E-03  9.315E+01  9.221E+01 
5.00000E-03  4.790E+01  4.715E+01 
6.00000E-03  2.770E+01  2.708E+01 
8.00000E-03  1.163E+01  1.116E+01 
1.00000E-02  5.952E+00  5.565E+00 
1.50000E-02  1.836E+00  1.545E+00 
2.00000E-02  8.651E-01  6.179E-01 
3.00000E-02  3.779E-01  1.729E-01 
4.00000E-02  2.585E-01  7.530E-02 
5.00000E-02  2.132E-01  4.414E-02 
6.00000E-02  1.907E-01  3.207E-02 
8.00000E-02  1.678E-01  2.468E-02 
1.00000E-01  1.551E-01  2.355E-02 
1.50000E-01  1.361E-01  2.506E-02 
2.00000E-01  1.237E-01  2.679E-02 
3.00000E-01  1.070E-01  2.877E-02 
4.00000E-01  9.566E-02  2.953E-02 
5.00000E-01  8.729E-02  2.971E-02 
6.00000E-01  8.070E-02  2.957E-02 
8.00000E-01  7.087E-02  2.887E-02 
1.00000E+00  6.372E-02  2.794E-02 
1.25000E+00  5.697E-02  2.669E-02 
1.50000E+00  5.185E-02  2.551E-02 
2.00000E+00  4.459E-02  2.350E-02 
3.00000E+00  3.597E-02  2.066E-02 
4.00000E+00  3.100E-02  1.882E-02 
5.00000E+00  2.777E-02  1.757E-02 
6.00000E+00  2.552E-02  1.668E-02 
8.00000E+00  2.263E-02  1.553E-02 
1.00000E+01  2.089E-02  1.483E-02 
1.50000E+01  1.866E-02  1.396E-02 
2.00000E+01  1.770E-02  1.360E-02
#
Fluorine
Z = 9 

ASCII format
_________________________________

  Energy       μ/ρ        μen/ρ 
   (MeV)      (cm2/g)     (cm2/g)
_________________________________

1.00000E-03  5.649E+03  5.615E+03 
1.50000E-03  1.979E+03  1.969E+03 
2.00000E-03  9.047E+02  9.005E+02 
3.00000E-03  2.888E+02  2.870E+02 
4.00000E-03  1.256E+02  1.244E+02 
5.00000E-03  6.514E+01  6.424E+01 
6.00000E-03  3.789E+01  3.716E+01 
8.00000E-03  1.602E+01  1.548E+01 
1.00000E-02  8.205E+00  7.776E+00 
1.50000E-02  2.492E+00  2.186E+00 
2.00000E-02  1.133E+00  8.796E-01 
3.00000E-02  4.487E-01  2.451E-01 
4.00000E-02  2.828E-01  1.036E-01 
5.00000E-02  2.214E-01  5.747E-02 
6.00000E-02  1.920E-01  3.903E-02 
8.00000E-02  1.639E-01  2.676E-02 
1.00000E-01  1.496E-01  2.394E-02 
1.50000E-01  1.298E-01  2.417E-02 
2.00000E-01  1.176E-01  2.554E-02 
3.00000E-01  1.015E-01  2.729E-02 
4.00000E-01  9.073E-02  2.800E-02 
5.00000E-01  8.274E-02  2.815E-02 
6.00000E-01  7.649E-02  2.801E-02 
8.00000E-01  6.717E-02  2.734E-02 
1.00000E+00  6.037E-02  2.645E-02 
1.25000E+00  5.399E-02  2.527E-02 
1.50000E+00  4.915E-02  2.416E-02 
2.00000E+00  4.228E-02  2.226E-02 
3.00000E+00  3.422E-02  1.964E-02 
4.00000E+00  2.960E-02  1.797E-02 
5.00000E+00  2.663E-02  1.685E-02 
6.00000E+00  2.457E-02  1.607E-02 
8.00000E+00  2.195E-02  1.508E-02 
1.00000E+01  2.039E-02  1.451E-02 
1.50000E+01  1.846E-02  1.382E-02 
2.00000E+01  1.769E-02  1.357E-02
#
Neon
Z = 10 

ASCII format
_________________________________

  Energy       μ/ρ        μen/ρ 
   (MeV)      (cm2/g)     (cm2/g)
_________________________________

1.00000E-03  7.409E+03  7.326E+03 
1.50000E-03  2.666E+03  2.645E+03 
2.00000E-03  1.243E+03  1.234E+03 
3.00000E-03  4.051E+02  4.021E+02 
4.00000E-03  1.785E+02  1.767E+02 
5.00000E-03  9.339E+01  9.214E+01 
6.00000E-03  5.467E+01  5.369E+01 
8.00000E-03  2.328E+01  2.260E+01 
1.00000E-02  1.197E+01  1.143E+01 
1.50000E-02  3.613E+00  3.253E+00 
2.00000E-02  1.606E+00  1.317E+00 
3.00000E-02  5.923E-01  3.676E-01 
4.00000E-02  3.473E-01  1.528E-01 
5.00000E-02  2.579E-01  8.182E-02 
6.00000E-02  2.161E-01  5.287E-02 
8.00000E-02  1.781E-01  3.273E-02 
1.00000E-01  1.600E-01  2.733E-02 
1.50000E-01  1.370E-01  2.590E-02 
2.00000E-01  1.236E-01  2.697E-02 
3.00000E-01  1.064E-01  2.862E-02 
4.00000E-01  9.502E-02  2.931E-02 
5.00000E-01  8.664E-02  2.946E-02 
6.00000E-01  8.006E-02  2.930E-02 
8.00000E-01  7.029E-02  2.860E-02 
1.00000E+00  6.316E-02  2.766E-02 
1.25000E+00  5.646E-02  2.641E-02 
1.50000E+00  5.145E-02  2.526E-02 
2.00000E+00  4.430E-02  2.330E-02 
3.00000E+00  3.594E-02  2.061E-02 
4.00000E+00  3.122E-02  1.894E-02 
5.00000E+00  2.818E-02  1.784E-02 
6.00000E+00  2.610E-02  1.709E-02 
8.00000E+00  2.348E-02  1.616E-02 
1.00000E+01  2.197E-02  1.564E-02 
1.50000E+01  2.013E-02  1.508E-02 
2.00000E+01  1.946E-02  1.491E-02 
#
Sodium
Z = 11 

ASCII format
____________________________________

     Energy       μ/ρ        μen/ρ 
      (MeV)      (cm2/g)     (cm2/g)
____________________________________

   1.00000E-03  6.542E+02  6.522E+02 
   1.03542E-03  5.960E+02  5.941E+02 
   1.07210E-03  5.429E+02  5.410E+02 
K  1.07210E-03  6.435E+03  6.320E+03 
   1.50000E-03  3.194E+03  3.151E+03 
   2.00000E-03  1.521E+03  1.504E+03 
   3.00000E-03  5.070E+02  5.023E+02 
   4.00000E-03  2.261E+02  2.238E+02 
   5.00000E-03  1.194E+02  1.178E+02 
   6.00000E-03  7.030E+01  6.915E+01 
   8.00000E-03  3.018E+01  2.941E+01 
   1.00000E-02  1.557E+01  1.499E+01 
   1.50000E-02  4.694E+00  4.313E+00 
   2.00000E-02  2.057E+00  1.759E+00 
   3.00000E-02  7.197E-01  4.928E-01 
   4.00000E-02  3.969E-01  2.031E-01 
   5.00000E-02  2.804E-01  1.063E-01 
   6.00000E-02  2.268E-01  6.625E-02 
   8.00000E-02  1.796E-01  3.761E-02 
   1.00000E-01  1.585E-01  2.931E-02 
   1.50000E-01  1.335E-01  2.579E-02 
   2.00000E-01  1.199E-01  2.635E-02 
   3.00000E-01  1.029E-01  2.771E-02 
   4.00000E-01  9.185E-02  2.833E-02 
   5.00000E-01  8.372E-02  2.845E-02 
   6.00000E-01  7.736E-02  2.830E-02 
   8.00000E-01  6.788E-02  2.760E-02 
   1.00000E+00  6.100E-02  2.669E-02 
   1.25000E+00  5.454E-02  2.549E-02 
   1.50000E+00  4.968E-02  2.437E-02 
   2.00000E+00  4.282E-02  2.249E-02 
   3.00000E+00  3.487E-02  1.997E-02 
   4.00000E+00  3.037E-02  1.842E-02 
   5.00000E+00  2.753E-02  1.743E-02 
   6.00000E+00  2.559E-02  1.675E-02 
   8.00000E+00  2.319E-02  1.595E-02 
   1.00000E+01  2.181E-02  1.552E-02 
   1.50000E+01  2.023E-02  1.508E-02 
   2.00000E+01  1.970E-02  1.496E-02 
#
Magnesium
Z = 12 

ASCII format
____________________________________

     Energy       μ/ρ        μen/ρ 
      (MeV)      (cm2/g)     (cm2/g)
____________________________________

   1.00000E-03  9.225E+02  9.203E+02 
   1.14237E-03  6.474E+02  6.452E+02 
   1.30500E-03  4.530E+02  4.509E+02 
K  1.30500E-03  5.444E+03  5.310E+03 
   1.50000E-03  4.004E+03  3.918E+03 
   2.00000E-03  1.932E+03  1.899E+03 
   3.00000E-03  6.585E+02  6.499E+02 
   4.00000E-03  2.974E+02  2.937E+02 
   5.00000E-03  1.583E+02  1.561E+02 
   6.00000E-03  9.381E+01  9.227E+01 
   8.00000E-03  4.061E+01  3.965E+01 
   1.00000E-02  2.105E+01  2.036E+01 
   1.50000E-02  6.358E+00  5.925E+00 
   2.00000E-02  2.763E+00  2.432E+00 
   3.00000E-02  9.306E-01  6.855E-01 
   4.00000E-02  4.881E-01  2.815E-01 
   5.00000E-02  3.292E-01  1.451E-01 
   6.00000E-02  2.570E-01  8.820E-02 
   8.00000E-02  1.951E-01  4.671E-02 
   1.00000E-01  1.686E-01  3.410E-02 
   1.50000E-01  1.394E-01  2.766E-02 
   2.00000E-01  1.245E-01  2.761E-02 
   3.00000E-01  1.065E-01  2.871E-02 
   4.00000E-01  9.492E-02  2.928E-02 
   5.00000E-01  8.647E-02  2.938E-02 
   6.00000E-01  7.988E-02  2.921E-02 
   8.00000E-01  7.008E-02  2.848E-02 
   1.00000E+00  6.296E-02  2.753E-02 
   1.25000E+00  5.629E-02  2.629E-02 
   1.50000E+00  5.129E-02  2.514E-02 
   2.00000E+00  4.426E-02  2.322E-02 
   3.00000E+00  3.613E-02  2.067E-02 
   4.00000E+00  3.159E-02  1.915E-02 
   5.00000E+00  2.873E-02  1.819E-02 
   6.00000E+00  2.681E-02  1.756E-02 
   8.00000E+00  2.445E-02  1.683E-02 
   1.00000E+01  2.313E-02  1.646E-02 
   1.50000E+01  2.168E-02  1.614E-02 
   2.00000E+01  2.127E-02  1.609E-02
#
Aluminum
Z = 13 

ASCII format
____________________________________

     Energy       μ/ρ        μen/ρ 
      (MeV)      (cm2/g)     (cm2/g)
____________________________________

   1.00000E-03  1.185E+03  1.183E+03 
   1.50000E-03  4.022E+02  4.001E+02 
   1.55960E-03  3.621E+02  3.600E+02 
K  1.55960E-03  3.957E+03  3.829E+03 
   2.00000E-03  2.263E+03  2.204E+03 
   3.00000E-03  7.880E+02  7.732E+02 
   4.00000E-03  3.605E+02  3.545E+02 
   5.00000E-03  1.934E+02  1.902E+02 
   6.00000E-03  1.153E+02  1.133E+02 
   8.00000E-03  5.033E+01  4.918E+01 
   1.00000E-02  2.623E+01  2.543E+01 
   1.50000E-02  7.955E+00  7.487E+00 
   2.00000E-02  3.441E+00  3.094E+00 
   3.00000E-02  1.128E+00  8.778E-01 
   4.00000E-02  5.685E-01  3.601E-01 
   5.00000E-02  3.681E-01  1.840E-01 
   6.00000E-02  2.778E-01  1.099E-01 
   8.00000E-02  2.018E-01  5.511E-02 
   1.00000E-01  1.704E-01  3.794E-02 
   1.50000E-01  1.378E-01  2.827E-02 
   2.00000E-01  1.223E-01  2.745E-02 
   3.00000E-01  1.042E-01  2.816E-02 
   4.00000E-01  9.276E-02  2.862E-02 
   5.00000E-01  8.445E-02  2.868E-02 
   6.00000E-01  7.802E-02  2.851E-02 
   8.00000E-01  6.841E-02  2.778E-02 
   1.00000E+00  6.146E-02  2.686E-02 
   1.25000E+00  5.496E-02  2.565E-02 
   1.50000E+00  5.006E-02  2.451E-02 
   2.00000E+00  4.324E-02  2.266E-02 
   3.00000E+00  3.541E-02  2.024E-02 
   4.00000E+00  3.106E-02  1.882E-02 
   5.00000E+00  2.836E-02  1.795E-02 
   6.00000E+00  2.655E-02  1.739E-02 
   8.00000E+00  2.437E-02  1.678E-02 
   1.00000E+01  2.318E-02  1.650E-02 
   1.50000E+01  2.195E-02  1.631E-02 
   2.00000E+01  2.168E-02  1.633E-02
#
Silicon
Z = 14 

ASCII format
____________________________________

     Energy       μ/ρ        μen/ρ 
      (MeV)      (cm2/g)     (cm2/g)
____________________________________

   1.00000E-03  1.570E+03  1.567E+03 
   1.50000E-03  5.355E+02  5.331E+02 
   1.83890E-03  3.092E+02  3.070E+02 
K  1.83890E-03  3.192E+03  3.059E+03 
   2.00000E-03  2.777E+03  2.669E+03 
   3.00000E-03  9.784E+02  9.516E+02 
   4.00000E-03  4.529E+02  4.427E+02 
   5.00000E-03  2.450E+02  2.400E+02 
   6.00000E-03  1.470E+02  1.439E+02 
   8.00000E-03  6.468E+01  6.313E+01 
   1.00000E-02  3.389E+01  3.289E+01 
   1.50000E-02  1.034E+01  9.794E+00 
   2.00000E-02  4.464E+00  4.076E+00 
   3.00000E-02  1.436E+00  1.164E+00 
   4.00000E-02  7.012E-01  4.782E-01 
   5.00000E-02  4.385E-01  2.430E-01 
   6.00000E-02  3.207E-01  1.434E-01 
   8.00000E-02  2.228E-01  6.896E-02 
   1.00000E-01  1.835E-01  4.513E-02 
   1.50000E-01  1.448E-01  3.086E-02 
   2.00000E-01  1.275E-01  2.905E-02 
   3.00000E-01  1.082E-01  2.932E-02 
   4.00000E-01  9.614E-02  2.968E-02 
   5.00000E-01  8.748E-02  2.971E-02 
   6.00000E-01  8.077E-02  2.951E-02 
   8.00000E-01  7.082E-02  2.875E-02 
   1.00000E+00  6.361E-02  2.778E-02 
   1.25000E+00  5.688E-02  2.652E-02 
   1.50000E+00  5.183E-02  2.535E-02 
   2.00000E+00  4.480E-02  2.345E-02 
   3.00000E+00  3.678E-02  2.101E-02 
   4.00000E+00  3.240E-02  1.963E-02 
   5.00000E+00  2.967E-02  1.878E-02 
   6.00000E+00  2.788E-02  1.827E-02 
   8.00000E+00  2.574E-02  1.773E-02 
   1.00000E+01  2.462E-02  1.753E-02 
   1.50000E+01  2.352E-02  1.746E-02 
   2.00000E+01  2.338E-02  1.757E-02
#
Phosphorus
Z = 15 

ASCII format
____________________________________

     Energy       μ/ρ        μen/ρ 
      (MeV)      (cm2/g)     (cm2/g)
____________________________________

   1.00000E-03  1.913E+03  1.910E+03 
   1.50000E-03  6.547E+02  6.522E+02 
   2.00000E-03  3.018E+02  2.996E+02 
   2.14550E-03  2.494E+02  2.473E+02 
K  2.14550E-03  2.473E+03  2.343E+03 
   3.00000E-03  1.118E+03  1.074E+03 
   4.00000E-03  5.242E+02  5.079E+02 
   5.00000E-03  2.860E+02  2.782E+02 
   6.00000E-03  1.726E+02  1.682E+02 
   8.00000E-03  7.660E+01  7.457E+01 
   1.00000E-02  4.035E+01  3.912E+01 
   1.50000E-02  1.239E+01  1.179E+01 
   2.00000E-02  5.352E+00  4.939E+00 
   3.00000E-02  1.700E+00  1.422E+00 
   4.00000E-02  8.096E-01  5.850E-01 
   5.00000E-02  4.916E-01  2.965E-01 
   6.00000E-02  3.494E-01  1.735E-01 
   8.00000E-02  2.324E-01  8.083E-02 
   1.00000E-01  1.865E-01  5.068E-02 
   1.50000E-01  1.432E-01  3.188E-02 
   2.00000E-01  1.250E-01  2.899E-02 
   3.00000E-01  1.055E-01  2.870E-02 
   4.00000E-01  9.359E-02  2.892E-02 
   5.00000E-01  8.511E-02  2.891E-02 
   6.00000E-01  7.854E-02  2.869E-02 
   8.00000E-01  6.884E-02  2.793E-02 
   1.00000E+00  6.182E-02  2.698E-02 
   1.25000E+00  5.526E-02  2.575E-02 
   1.50000E+00  5.039E-02  2.462E-02 
   2.00000E+00  4.358E-02  2.279E-02 
   3.00000E+00  3.590E-02  2.049E-02 
   4.00000E+00  3.172E-02  1.921E-02 
   5.00000E+00  2.915E-02  1.846E-02 
   6.00000E+00  2.747E-02  1.801E-02 
   8.00000E+00  2.552E-02  1.760E-02 
   1.00000E+01  2.452E-02  1.747E-02 
   1.50000E+01  2.364E-02  1.754E-02 
   2.00000E+01  2.363E-02  1.771E-02
#
Sulfur
Z = 16

ASCII format
____________________________________

     Energy       μ/ρ        μen/ρ 
      (MeV)      (cm2/g)     (cm2/g)
____________________________________

   1.00000E-03  2.429E+03  2.426E+03 
   1.50000E-03  8.342E+02  8.314E+02 
   2.00000E-03  3.853E+02  3.828E+02 
   2.47200E-03  2.168E+02  2.145E+02 
K  2.47200E-03  2.070E+03  1.935E+03 
   3.00000E-03  1.339E+03  1.265E+03 
   4.00000E-03  6.338E+02  6.066E+02 
   5.00000E-03  3.487E+02  3.360E+02 
   6.00000E-03  2.116E+02  2.046E+02 
   8.00000E-03  9.465E+01  9.171E+01 
   1.00000E-02  5.012E+01  4.847E+01 
   1.50000E-02  1.550E+01  1.477E+01 
   2.00000E-02  6.708E+00  6.235E+00 
   3.00000E-02  2.113E+00  1.809E+00 
   4.00000E-02  9.872E-01  7.466E-01 
   5.00000E-02  5.849E-01  3.779E-01 
   6.00000E-02  4.053E-01  2.199E-01 
   8.00000E-02  2.585E-01  1.000E-01 
   1.00000E-01  2.020E-01  6.052E-02 
   1.50000E-01  1.506E-01  3.516E-02 
   2.00000E-01  1.302E-01  3.080E-02 
   3.00000E-01  1.091E-01  2.983E-02 
   4.00000E-01  9.665E-02  2.991E-02 
   5.00000E-01  8.781E-02  2.984E-02 
   6.00000E-01  8.102E-02  2.959E-02 
   8.00000E-01  7.098E-02  2.878E-02 
   1.00000E+00  6.373E-02  2.780E-02 
   1.25000E+00  5.697E-02  2.652E-02 
   1.50000E+00  5.193E-02  2.535E-02 
   2.00000E+00  4.498E-02  2.349E-02 
   3.00000E+00  3.715E-02  2.118E-02 
   4.00000E+00  3.293E-02  1.993E-02 
   5.00000E+00  3.036E-02  1.923E-02 
   6.00000E+00  2.872E-02  1.884E-02 
   8.00000E+00  2.682E-02  1.850E-02 
   1.00000E+01  2.589E-02  1.845E-02 
   1.50000E+01  2.517E-02  1.864E-02 
   2.00000E+01  2.529E-02  1.889E-02
#
Chlorine
Z = 17 

ASCII format
____________________________________

     Energy       μ/ρ        μen/ρ 
      (MeV)      (cm2/g)     (cm2/g)
____________________________________

   1.00000E-03  2.832E+03  2.829E+03 
   1.50000E-03  9.771E+02  9.742E+02 
   2.00000E-03  4.520E+02  4.494E+02 
   2.82240E-03  1.774E+02  1.752E+02 
K  2.82240E-03  1.637E+03  1.506E+03 
   3.00000E-03  1.473E+03  1.361E+03 
   4.00000E-03  7.037E+02  6.626E+02 
   5.00000E-03  3.901E+02  3.711E+02 
   6.00000E-03  2.384E+02  2.282E+02 
   8.00000E-03  1.075E+02  1.034E+02 
   1.00000E-02  5.725E+01  5.510E+01 
   1.50000E-02  1.784E+01  1.700E+01 
   2.00000E-02  7.739E+00  7.227E+00 
   3.00000E-02  2.425E+00  2.114E+00 
   4.00000E-02  1.117E+00  8.756E-01 
   5.00000E-02  6.483E-01  4.433E-01 
   6.00000E-02  4.395E-01  2.570E-01 
   8.00000E-02  2.696E-01  1.148E-01 
   1.00000E-01  2.050E-01  6.745E-02 
   1.50000E-01  1.480E-01  3.639E-02 
   2.00000E-01  1.266E-01  3.067E-02 
   3.00000E-01  1.054E-01  2.898E-02 
   4.00000E-01  9.311E-02  2.887E-02 
   5.00000E-01  8.453E-02  2.874E-02 
   6.00000E-01  7.795E-02  2.847E-02 
   8.00000E-01  6.826E-02  2.767E-02 
   1.00000E+00  6.128E-02  2.671E-02 
   1.25000E+00  5.478E-02  2.549E-02 
   1.50000E+00  4.994E-02  2.436E-02 
   2.00000E+00  4.328E-02  2.258E-02 
   3.00000E+00  3.585E-02  2.043E-02 
   4.00000E+00  3.188E-02  1.931E-02 
   5.00000E+00  2.950E-02  1.871E-02 
   6.00000E+00  2.798E-02  1.839E-02 
   8.00000E+00  2.628E-02  1.819E-02 
   1.00000E+01  2.549E-02  1.824E-02 
   1.50000E+01  2.496E-02  1.861E-02 
   2.00000E+01  2.520E-02  1.899E-02 
#
Argon
Z = 18 

ASCII format
____________________________________

     Energy       μ/ρ        μen/ρ 
      (MeV)      (cm2/g)     (cm2/g)
____________________________________

   1.00000E-03  3.184E+03  3.180E+03 
   1.50000E-03  1.105E+03  1.102E+03 
   2.00000E-03  5.120E+02  5.093E+02 
   3.00000E-03  1.703E+02  1.682E+02 
   3.20290E-03  1.424E+02  1.403E+02 
K  3.20290E-03  1.275E+03  1.153E+03 
   4.00000E-03  7.572E+02  6.979E+02 
   5.00000E-03  4.225E+02  3.953E+02 
   6.00000E-03  2.593E+02  2.449E+02 
   8.00000E-03  1.180E+02  1.125E+02 
   1.00000E-02  6.316E+01  6.038E+01 
   1.50000E-02  1.983E+01  1.886E+01 
   2.00000E-02  8.629E+00  8.074E+00 
   3.00000E-02  2.697E+00  2.382E+00 
   4.00000E-02  1.228E+00  9.907E-01 
   5.00000E-02  7.012E-01  5.020E-01 
   6.00000E-02  4.664E-01  2.904E-01 
   8.00000E-02  2.760E-01  1.280E-01 
   1.00000E-01  2.043E-01  7.344E-02 
   1.50000E-01  1.427E-01  3.703E-02 
   2.00000E-01  1.205E-01  2.998E-02 
   3.00000E-01  9.953E-02  2.757E-02 
   4.00000E-01  8.776E-02  2.727E-02 
   5.00000E-01  7.958E-02  2.708E-02 
   6.00000E-01  7.335E-02  2.679E-02 
   8.00000E-01  6.419E-02  2.601E-02 
   1.00000E+00  5.762E-02  2.510E-02 
   1.25000E+00  5.150E-02  2.394E-02 
   1.50000E+00  4.695E-02  2.288E-02 
   2.00000E+00  4.074E-02  2.123E-02 
   3.00000E+00  3.384E-02  1.927E-02 
   4.00000E+00  3.019E-02  1.827E-02 
   5.00000E+00  2.802E-02  1.777E-02 
   6.00000E+00  2.667E-02  1.753E-02 
   8.00000E+00  2.517E-02  1.742E-02 
   1.00000E+01  2.451E-02  1.754E-02 
   1.50000E+01  2.418E-02  1.800E-02 
   2.00000E+01  2.453E-02  1.842E-02
#
Potassium
Z = 19 

ASCII format
____________________________________

     Energy       μ/ρ        μen/ρ 
      (MeV)      (cm2/g)     (cm2/g)
____________________________________

   1.00000E-03  4.058E+03  4.053E+03 
   1.50000E-03  1.418E+03  1.415E+03 
   2.00000E-03  6.592E+02  6.563E+02 
   3.00000E-03  2.198E+02  2.174E+02 
   3.60740E-03  1.327E+02  1.306E+02 
K  3.60740E-03  1.201E+03  1.065E+03 
   4.00000E-03  9.256E+02  8.304E+02 
   5.00000E-03  5.189E+02  4.752E+02 
   6.00000E-03  3.205E+02  2.974E+02 
   8.00000E-03  1.469E+02  1.383E+02 
   1.00000E-02  7.907E+01  7.490E+01 
   1.50000E-02  2.503E+01  2.370E+01 
   2.00000E-02  1.093E+01  1.023E+01 
   3.00000E-02  3.413E+00  3.045E+00 
   4.00000E-02  1.541E+00  1.272E+00 
   5.00000E-02  8.679E-01  6.454E-01 
   6.00000E-02  5.678E-01  3.730E-01 
   8.00000E-02  3.251E-01  1.628E-01 
   1.00000E-01  2.345E-01  9.161E-02 
   1.50000E-01  1.582E-01  4.346E-02 
   2.00000E-01  1.319E-01  3.378E-02 
   3.00000E-01  1.080E-01  3.015E-02 
   4.00000E-01  9.495E-02  2.959E-02 
   5.00000E-01  8.600E-02  2.929E-02 
   6.00000E-01  7.922E-02  2.895E-02 
   8.00000E-01  6.929E-02  2.807E-02 
   1.00000E+00  6.216E-02  2.707E-02 
   1.25000E+00  5.556E-02  2.581E-02 
   1.50000E+00  5.068E-02  2.467E-02 
   2.00000E+00  4.399E-02  2.290E-02 
   3.00000E+00  3.666E-02  2.084E-02 
   4.00000E+00  3.282E-02  1.985E-02 
   5.00000E+00  3.054E-02  1.935E-02 
   6.00000E+00  2.915E-02  1.914E-02 
   8.00000E+00  2.766E-02  1.910E-02 
   1.00000E+01  2.704E-02  1.928E-02 
   1.50000E+01  2.687E-02  1.983E-02 
   2.00000E+01  2.737E-02  2.029E-02 
#
Calcium
Z = 20 

ASCII format
____________________________________

     Energy       μ/ρ        μen/ρ 
      (MeV)      (cm2/g)     (cm2/g)
____________________________________

   1.00000E-03  4.867E+03  4.861E+03 
   1.50000E-03  1.714E+03  1.710E+03 
   2.00000E-03  7.999E+02  7.966E+02 
   3.00000E-03  2.676E+02  2.650E+02 
   4.00000E-03  1.218E+02  1.197E+02 
   4.03810E-03  1.187E+02  1.166E+02 
K  4.03810E-03  1.023E+03  8.887E+02 
   5.00000E-03  6.026E+02  5.373E+02 
   6.00000E-03  3.731E+02  3.387E+02 
   8.00000E-03  1.726E+02  1.600E+02 
   1.00000E-02  9.341E+01  8.744E+01 
   1.50000E-02  2.979E+01  2.804E+01 
   2.00000E-02  1.306E+01  1.220E+01 
   3.00000E-02  4.080E+00  3.665E+00 
   4.00000E-02  1.830E+00  1.538E+00 
   5.00000E-02  1.019E+00  7.822E-01 
   6.00000E-02  6.578E-01  4.520E-01 
   8.00000E-02  3.656E-01  1.958E-01 
   1.00000E-01  2.571E-01  1.085E-01 
   1.50000E-01  1.674E-01  4.876E-02 
   2.00000E-01  1.376E-01  3.639E-02 
   3.00000E-01  1.116E-01  3.146E-02 
   4.00000E-01  9.783E-02  3.060E-02 
   5.00000E-01  8.851E-02  3.019E-02 
   6.00000E-01  8.148E-02  2.979E-02 
   8.00000E-01  7.122E-02  2.884E-02 
   1.00000E+00  6.388E-02  2.780E-02 
   1.25000E+00  5.709E-02  2.650E-02 
   1.50000E+00  5.207E-02  2.532E-02 
   2.00000E+00  4.524E-02  2.352E-02 
   3.00000E+00  3.780E-02  2.147E-02 
   4.00000E+00  3.395E-02  2.052E-02 
   5.00000E+00  3.170E-02  2.007E-02 
   6.00000E+00  3.035E-02  1.992E-02 
   8.00000E+00  2.892E-02  1.997E-02 
   1.00000E+01  2.839E-02  2.022E-02 
   1.50000E+01  2.838E-02  2.088E-02 
   2.00000E+01  2.903E-02  2.140E-02
#
Scandium
Z = 21 

ASCII format
____________________________________

     Energy       μ/ρ        μen/ρ 
      (MeV)      (cm2/g)     (cm2/g)
____________________________________

   1.00000E-03  5.238E+03  5.231E+03 
   1.50000E-03  1.858E+03  1.853E+03 
   2.00000E-03  8.706E+02  8.672E+02 
   3.00000E-03  2.922E+02  2.896E+02 
   4.00000E-03  1.332E+02  1.311E+02 
   4.49280E-03  9.687E+01  9.490E+01 
K  4.49280E-03  8.148E+02  6.911E+02 
   5.00000E-03  6.305E+02  5.436E+02 
   6.00000E-03  3.933E+02  3.474E+02 
   8.00000E-03  1.828E+02  1.661E+02 
   1.00000E-02  9.952E+01  9.175E+01 
   1.50000E-02  3.202E+01  2.988E+01 
   2.00000E-02  1.409E+01  1.311E+01 
   3.00000E-02  4.409E+00  3.975E+00 
   4.00000E-02  1.969E+00  1.677E+00 
   5.00000E-02  1.087E+00  8.552E-01 
   6.00000E-02  6.932E-01  4.944E-01 
   8.00000E-02  3.753E-01  2.132E-01 
   1.00000E-01  2.577E-01  1.167E-01 
   1.50000E-01  1.619E-01  4.998E-02 
   2.00000E-01  1.310E-01  3.586E-02 
   3.00000E-01  1.052E-01  2.997E-02 
   4.00000E-01  9.193E-02  2.887E-02 
   5.00000E-01  8.305E-02  2.837E-02 
   6.00000E-01  7.639E-02  2.795E-02 
   8.00000E-01  6.675E-02  2.703E-02 
   1.00000E+00  5.985E-02  2.603E-02 
   1.25000E+00  5.347E-02  2.480E-02 
   1.50000E+00  4.878E-02  2.370E-02 
   2.00000E+00  4.243E-02  2.202E-02 
   3.00000E+00  3.554E-02  2.016E-02 
   4.00000E+00  3.202E-02  1.933E-02 
   5.00000E+00  2.999E-02  1.897E-02 
   6.00000E+00  2.878E-02  1.887E-02 
   8.00000E+00  2.756E-02  1.900E-02 
   1.00000E+01  2.715E-02  1.929E-02 
   1.50000E+01  2.732E-02  2.000E-02 
   2.00000E+01  2.804E-02  2.052E-02
#
Titanium
Z = 22 

ASCII format
____________________________________

     Energy       μ/ρ        μen/ρ 
      (MeV)      (cm2/g)     (cm2/g)
____________________________________

   1.00000E-03  5.869E+03  5.860E+03 
   1.50000E-03  2.096E+03  2.091E+03 
   2.00000E-03  9.860E+02  9.824E+02 
   3.00000E-03  3.323E+02  3.295E+02 
   4.00000E-03  1.517E+02  1.494E+02 
   4.96640E-03  8.380E+01  8.188E+01 
K  4.96640E-03  6.878E+02  5.684E+02 
   5.00000E-03  6.838E+02  5.657E+02 
   6.00000E-03  4.323E+02  3.691E+02 
   8.00000E-03  2.023E+02  1.793E+02 
   1.00000E-02  1.107E+02  1.001E+02 
   1.50000E-02  3.587E+01  3.311E+01 
   2.00000E-02  1.585E+01  1.465E+01 
   3.00000E-02  4.972E+00  4.488E+00 
   4.00000E-02  2.214E+00  1.904E+00 
   5.00000E-02  1.213E+00  9.737E-01 
   6.00000E-02  7.661E-01  5.634E-01 
   8.00000E-02  4.052E-01  2.422E-01 
   1.00000E-01  2.721E-01  1.312E-01 
   1.50000E-01  1.649E-01  5.393E-02 
   2.00000E-01  1.314E-01  3.726E-02 
   3.00000E-01  1.043E-01  3.007E-02 
   4.00000E-01  9.081E-02  2.864E-02 
   5.00000E-01  8.191E-02  2.804E-02 
   6.00000E-01  7.529E-02  2.756E-02 
   8.00000E-01  6.572E-02  2.661E-02 
   1.00000E+00  5.891E-02  2.561E-02 
   1.25000E+00  5.263E-02  2.439E-02 
   1.50000E+00  4.801E-02  2.330E-02 
   2.00000E+00  4.180E-02  2.166E-02 
   3.00000E+00  3.512E-02  1.989E-02 
   4.00000E+00  3.173E-02  1.913E-02 
   5.00000E+00  2.982E-02  1.884E-02 
   6.00000E+00  2.868E-02  1.879E-02 
   8.00000E+00  2.759E-02  1.899E-02 
   1.00000E+01  2.727E-02  1.933E-02 
   1.50000E+01  2.762E-02  2.013E-02 
   2.00000E+01  2.844E-02  2.067E-02
#
Vanadium
Z = 23 

ASCII format
____________________________________

     Energy       μ/ρ        μen/ρ 
      (MeV)      (cm2/g)     (cm2/g)
____________________________________

   1.00000E-03  6.495E+03  6.483E+03 
   1.50000E-03  2.342E+03  2.336E+03 
   2.00000E-03  1.106E+03  1.102E+03 
   3.00000E-03  3.743E+02  3.713E+02 
   4.00000E-03  1.712E+02  1.688E+02 
   5.00000E-03  9.291E+01  9.089E+01 
   5.46510E-03  7.277E+01  7.090E+01 
K  5.46510E-03  5.870E+02  4.717E+02 
   6.00000E-03  4.687E+02  3.841E+02 
   8.00000E-03  2.217E+02  1.908E+02 
   1.00000E-02  1.218E+02  1.077E+02 
   1.50000E-02  3.983E+01  3.627E+01 
   2.00000E-02  1.768E+01  1.620E+01 
   3.00000E-02  5.564E+00  5.015E+00 
   4.00000E-02  2.472E+00  2.140E+00 
   5.00000E-02  1.347E+00  1.098E+00 
   6.00000E-02  8.438E-01  6.364E-01 
   8.00000E-02  4.371E-01  2.731E-01 
   1.00000E-01  2.877E-01  1.469E-01 
   1.50000E-01  1.682E-01  5.821E-02 
   2.00000E-01  1.318E-01  3.879E-02 
   3.00000E-01  1.034E-01  3.019E-02 
   4.00000E-01  8.965E-02  2.843E-02 
   5.00000E-01  8.074E-02  2.770E-02 
   6.00000E-01  7.414E-02  2.717E-02 
   8.00000E-01  6.466E-02  2.618E-02 
   1.00000E+00  5.794E-02  2.518E-02 
   1.25000E+00  5.175E-02  2.396E-02 
   1.50000E+00  4.722E-02  2.289E-02 
   2.00000E+00  4.115E-02  2.130E-02 
   3.00000E+00  3.466E-02  1.961E-02 
   4.00000E+00  3.141E-02  1.892E-02 
   5.00000E+00  2.960E-02  1.869E-02 
   6.00000E+00  2.855E-02  1.869E-02 
   8.00000E+00  2.759E-02  1.896E-02 
   1.00000E+01  2.738E-02  1.937E-02 
   1.50000E+01  2.786E-02  2.022E-02 
   2.00000E+01  2.877E-02  2.079E-02
#
Chromium
Z = 24 

ASCII format
____________________________________

     Energy       μ/ρ        μen/ρ 
      (MeV)      (cm2/g)     (cm2/g)
____________________________________

   1.00000E-03  7.405E+03  7.388E+03 
   1.50000E-03  2.694E+03  2.687E+03 
   2.00000E-03  1.277E+03  1.272E+03 
   3.00000E-03  4.339E+02  4.305E+02 
   4.00000E-03  1.988E+02  1.961E+02 
   5.00000E-03  1.080E+02  1.057E+02 
   5.98920E-03  6.574E+01  6.383E+01 
K  5.98920E-03  5.977E+02  4.027E+02 
   6.00000E-03  5.160E+02  4.027E+02 
   8.00000E-03  2.513E+02  2.087E+02 
   1.00000E-02  1.386E+02  1.193E+02 
   1.50000E-02  4.571E+01  4.093E+01 
   2.00000E-02  2.038E+01  1.846E+01 
   3.00000E-02  6.434E+00  5.780E+00 
   4.00000E-02  2.856E+00  2.482E+00 
   5.00000E-02  1.550E+00  1.278E+00 
   6.00000E-02  9.639E-01  7.420E-01 
   8.00000E-02  4.905E-01  3.182E-01 
   1.00000E-01  3.166E-01  1.701E-01 
   1.50000E-01  1.788E-01  6.536E-02 
   2.00000E-01  1.378E-01  4.211E-02 
   3.00000E-01  1.067E-01  3.160E-02 
   4.00000E-01  9.213E-02  2.938E-02 
   5.00000E-01  8.281E-02  2.849E-02 
   6.00000E-01  7.598E-02  2.788E-02 
   8.00000E-01  6.620E-02  2.680E-02 
   1.00000E+00  5.930E-02  2.576E-02 
   1.25000E+00  5.295E-02  2.450E-02 
   1.50000E+00  4.832E-02  2.340E-02 
   2.00000E+00  4.213E-02  2.178E-02 
   3.00000E+00  3.559E-02  2.011E-02 
   4.00000E+00  3.235E-02  1.947E-02 
   5.00000E+00  3.057E-02  1.929E-02 
   6.00000E+00  2.956E-02  1.933E-02 
   8.00000E+00  2.869E-02  1.970E-02 
   1.00000E+01  2.855E-02  2.016E-02 
   1.50000E+01  2.920E-02  2.112E-02 
   2.00000E+01  3.026E-02  2.174E-02
#
Manganese
Z = 25 

ASCII format
____________________________________

     Energy       μ/ρ        μen/ρ 
      (MeV)      (cm2/g)     (cm2/g)
____________________________________

   1.00000E-03  8.093E+03  8.069E+03 
   1.50000E-03  2.984E+03  2.975E+03 
   2.00000E-03  1.421E+03  1.415E+03 
   3.00000E-03  4.851E+02  4.815E+02 
   4.00000E-03  2.229E+02  2.201E+02 
   5.00000E-03  1.212E+02  1.188E+02 
   6.00000E-03  7.350E+01  7.150E+01 
   6.53900E-03  5.803E+01  5.619E+01 
K  6.53900E-03  4.520E+02  3.415E+02 
   8.00000E-03  2.734E+02  2.177E+02 
   1.00000E-02  1.514E+02  1.262E+02 
   1.50000E-02  5.027E+01  4.414E+01 
   2.00000E-02  2.253E+01  2.015E+01 
   3.00000E-02  7.141E+00  6.382E+00 
   4.00000E-02  3.169E+00  2.757E+00 
   5.00000E-02  1.714E+00  1.425E+00 
   6.00000E-02  1.060E+00  8.294E-01 
   8.00000E-02  5.306E-01  3.558E-01 
   1.00000E-01  3.367E-01  1.894E-01 
   1.50000E-01  1.838E-01  7.085E-02 
   2.00000E-01  1.391E-01  4.421E-02 
   3.00000E-01  1.062E-01  3.196E-02 
   4.00000E-01  9.133E-02  2.932E-02 
   5.00000E-01  8.192E-02  2.827E-02 
   6.00000E-01  7.509E-02  2.760E-02 
   8.00000E-01  6.537E-02  2.647E-02 
   1.00000E+00  5.852E-02  2.541E-02 
   1.25000E+00  5.224E-02  2.416E-02 
   1.50000E+00  4.769E-02  2.307E-02 
   2.00000E+00  4.162E-02  2.149E-02 
   3.00000E+00  3.524E-02  1.989E-02 
   4.00000E+00  3.213E-02  1.933E-02 
   5.00000E+00  3.045E-02  1.920E-02 
   6.00000E+00  2.952E-02  1.930E-02 
   8.00000E+00  2.875E-02  1.973E-02 
   1.00000E+01  2.871E-02  2.025E-02 
   1.50000E+01  2.951E-02  2.127E-02 
   2.00000E+01  3.068E-02  2.193E-02
#
Iron
Z = 26 

ASCII format
____________________________________

     Energy       μ/ρ        μen/ρ 
      (MeV)      (cm2/g)     (cm2/g)
____________________________________

   1.00000E-03  9.085E+03  9.052E+03 
   1.50000E-03  3.399E+03  3.388E+03 
   2.00000E-03  1.626E+03  1.620E+03 
   3.00000E-03  5.576E+02  5.535E+02 
   4.00000E-03  2.567E+02  2.536E+02 
   5.00000E-03  1.398E+02  1.372E+02 
   6.00000E-03  8.484E+01  8.265E+01 
   7.11200E-03  5.319E+01  5.133E+01 
K  7.11200E-03  4.076E+02  2.978E+02 
   8.00000E-03  3.056E+02  2.316E+02 
   1.00000E-02  1.706E+02  1.369E+02 
   1.50000E-02  5.708E+01  4.896E+01 
   2.00000E-02  2.568E+01  2.260E+01 
   3.00000E-02  8.176E+00  7.251E+00 
   4.00000E-02  3.629E+00  3.155E+00 
   5.00000E-02  1.958E+00  1.638E+00 
   6.00000E-02  1.205E+00  9.555E-01 
   8.00000E-02  5.952E-01  4.104E-01 
   1.00000E-01  3.717E-01  2.177E-01 
   1.50000E-01  1.964E-01  7.961E-02 
   2.00000E-01  1.460E-01  4.825E-02 
   3.00000E-01  1.099E-01  3.361E-02 
   4.00000E-01  9.400E-02  3.039E-02 
   5.00000E-01  8.414E-02  2.914E-02 
   6.00000E-01  7.704E-02  2.836E-02 
   8.00000E-01  6.699E-02  2.714E-02 
   1.00000E+00  5.995E-02  2.603E-02 
   1.25000E+00  5.350E-02  2.472E-02 
   1.50000E+00  4.883E-02  2.360E-02 
   2.00000E+00  4.265E-02  2.199E-02 
   3.00000E+00  3.621E-02  2.042E-02 
   4.00000E+00  3.312E-02  1.990E-02 
   5.00000E+00  3.146E-02  1.983E-02 
   6.00000E+00  3.057E-02  1.997E-02 
   8.00000E+00  2.991E-02  2.050E-02 
   1.00000E+01  2.994E-02  2.108E-02 
   1.50000E+01  3.092E-02  2.221E-02 
   2.00000E+01  3.224E-02  2.292E-02 
#
Cobalt
Z = 27 

ASCII format
____________________________________

     Energy       μ/ρ        μen/ρ 
      (MeV)      (cm2/g)     (cm2/g)
____________________________________

   1.00000E-03  9.796E+03  9.750E+03 
   1.50000E-03  3.697E+03  3.682E+03 
   2.00000E-03  1.779E+03  1.771E+03 
   3.00000E-03  6.129E+02  6.084E+02 
   4.00000E-03  2.830E+02  2.796E+02 
   5.00000E-03  1.543E+02  1.515E+02 
   6.00000E-03  9.370E+01  9.138E+01 
   7.70890E-03  4.710E+01  4.530E+01 
K  7.70890E-03  3.555E+02  2.507E+02 
   8.00000E-03  3.248E+02  2.322E+02 
   1.00000E-02  1.841E+02  1.413E+02 
   1.50000E-02  6.201E+01  5.178E+01 
   2.00000E-02  2.803E+01  2.421E+01 
   3.00000E-02  8.962E+00  7.873E+00 
   4.00000E-02  3.981E+00  3.450E+00 
   5.00000E-02  2.144E+00  1.799E+00 
   6.00000E-02  1.314E+00  1.052E+00 
   8.00000E-02  6.414E-01  4.528E-01 
   1.00000E-01  3.949E-01  2.397E-01 
   1.50000E-01  2.023E-01  8.597E-02 
   2.00000E-01  1.476E-01  5.071E-02 
   3.00000E-01  1.094E-01  3.406E-02 
   4.00000E-01  9.311E-02  3.034E-02 
   5.00000E-01  8.315E-02  2.890E-02 
   6.00000E-01  7.604E-02  2.805E-02 
   8.00000E-01  6.604E-02  2.677E-02 
   1.00000E+00  5.906E-02  2.564E-02 
   1.25000E+00  5.270E-02  2.434E-02 
   1.50000E+00  4.810E-02  2.323E-02 
   2.00000E+00  4.204E-02  2.165E-02 
   3.00000E+00  3.580E-02  2.016E-02 
   4.00000E+00  3.283E-02  1.971E-02 
   5.00000E+00  3.127E-02  1.969E-02 
   6.00000E+00  3.045E-02  1.988E-02 
   8.00000E+00  2.991E-02  2.048E-02 
   1.00000E+01  3.002E-02  2.110E-02 
   1.50000E+01  3.115E-02  2.230E-02 
   2.00000E+01  3.256E-02  2.303E-02 
#
Nickel
Z = 28 

ASCII format
____________________________________

     Energy       μ/ρ        μen/ρ 
      (MeV)      (cm2/g)     (cm2/g)
____________________________________

   1.00000E-03  9.855E+03  9.797E+03 
   1.00404E-03  9.753E+03  9.697E+03 
   1.00810E-03  9.654E+03  9.598E+03 
L1 1.00810E-03  1.099E+04  1.093E+04 
   1.50000E-03  4.234E+03  4.214E+03 
   2.00000E-03  2.049E+03  2.039E+03 
   3.00000E-03  7.094E+02  7.042E+02 
   4.00000E-03  3.282E+02  3.244E+02 
   5.00000E-03  1.793E+02  1.761E+02 
   6.00000E-03  1.090E+02  1.064E+02 
   8.00000E-03  4.952E+01  4.758E+01 
   8.33280E-03  4.428E+01  4.242E+01 
K  8.33280E-03  3.294E+02  2.240E+02 
   1.00000E-02  2.090E+02  1.524E+02 
   1.50000E-02  7.081E+01  5.734E+01 
   2.00000E-02  3.220E+01  2.722E+01 
   3.00000E-02  1.034E+01  8.982E+00 
   4.00000E-02  4.600E+00  3.967E+00 
   5.00000E-02  2.474E+00  2.078E+00 
   6.00000E-02  1.512E+00  1.219E+00 
   8.00000E-02  7.306E-01  5.259E-01 
   1.00000E-01  4.440E-01  2.781E-01 
   1.50000E-01  2.208E-01  9.812E-02 
   2.00000E-01  1.582E-01  5.649E-02 
   3.00000E-01  1.154E-01  3.659E-02 
   4.00000E-01  9.765E-02  3.209E-02 
   5.00000E-01  8.698E-02  3.036E-02 
   6.00000E-01  7.944E-02  2.937E-02 
   8.00000E-01  6.891E-02  2.795E-02 
   1.00000E+00  6.160E-02  2.674E-02 
   1.25000E+00  5.494E-02  2.536E-02 
   1.50000E+00  5.015E-02  2.420E-02 
   2.00000E+00  4.387E-02  2.257E-02 
   3.00000E+00  3.745E-02  2.107E-02 
   4.00000E+00  3.444E-02  2.066E-02 
   5.00000E+00  3.289E-02  2.070E-02 
   6.00000E+00  3.210E-02  2.094E-02 
   8.00000E+00  3.164E-02  2.163E-02 
   1.00000E+01  3.185E-02  2.234E-02 
   1.50000E+01  3.320E-02  2.368E-02 
   2.00000E+01  3.476E-02  2.446E-02 
#
Copper
Z = 29 

ASCII format
____________________________________

     Energy       μ/ρ        μen/ρ 
      (MeV)      (cm2/g)     (cm2/g)
____________________________________

   1.00000E-03  1.057E+04  1.049E+04 
   1.04695E-03  9.307E+03  9.241E+03 
   1.09610E-03  8.242E+03  8.186E+03 
L1 1.09610E-03  9.347E+03  9.282E+03 
   1.50000E-03  4.418E+03  4.393E+03 
   2.00000E-03  2.154E+03  2.142E+03 
   3.00000E-03  7.488E+02  7.430E+02 
   4.00000E-03  3.473E+02  3.432E+02 
   5.00000E-03  1.899E+02  1.866E+02 
   6.00000E-03  1.156E+02  1.128E+02 
   8.00000E-03  5.255E+01  5.054E+01 
   8.97890E-03  3.829E+01  3.652E+01 
K  8.97890E-03  2.784E+02  1.824E+02 
   1.00000E-02  2.159E+02  1.484E+02 
   1.50000E-02  7.405E+01  5.788E+01 
   2.00000E-02  3.379E+01  2.788E+01 
   3.00000E-02  1.092E+01  9.349E+00 
   4.00000E-02  4.862E+00  4.163E+00 
   5.00000E-02  2.613E+00  2.192E+00 
   6.00000E-02  1.593E+00  1.290E+00 
   8.00000E-02  7.630E-01  5.581E-01 
   1.00000E-01  4.584E-01  2.949E-01 
   1.50000E-01  2.217E-01  1.027E-01 
   2.00000E-01  1.559E-01  5.781E-02 
   3.00000E-01  1.119E-01  3.617E-02 
   4.00000E-01  9.413E-02  3.121E-02 
   5.00000E-01  8.362E-02  2.933E-02 
   6.00000E-01  7.625E-02  2.826E-02 
   8.00000E-01  6.605E-02  2.681E-02 
   1.00000E+00  5.901E-02  2.562E-02 
   1.25000E+00  5.261E-02  2.428E-02 
   1.50000E+00  4.803E-02  2.316E-02 
   2.00000E+00  4.205E-02  2.160E-02 
   3.00000E+00  3.599E-02  2.023E-02 
   4.00000E+00  3.318E-02  1.989E-02 
   5.00000E+00  3.177E-02  1.998E-02 
   6.00000E+00  3.108E-02  2.027E-02 
   8.00000E+00  3.074E-02  2.100E-02 
   1.00000E+01  3.103E-02  2.174E-02 
   1.50000E+01  3.247E-02  2.309E-02 
   2.00000E+01  3.408E-02  2.387E-02
#
Zinc
Z = 30 

ASCII format
____________________________________

     Energy       μ/ρ        μen/ρ 
      (MeV)      (cm2/g)     (cm2/g)
____________________________________

   1.00000E-03  1.553E+03  1.548E+03 
   1.00980E-03  1.518E+03  1.513E+03 
   1.01970E-03  1.484E+03  1.478E+03 
L3 1.01970E-03  3.804E+03  3.777E+03 
   1.03119E-03  5.097E+03  5.057E+03 
   1.04280E-03  6.518E+03  6.464E+03 
L2 1.04280E-03  8.274E+03  8.202E+03 
   1.11565E-03  8.452E+03  8.382E+03 
   1.19360E-03  7.371E+03  7.312E+03 
L1 1.19360E-03  8.396E+03  8.328E+03 
   1.50000E-03  4.825E+03  4.791E+03 
   2.00000E-03  2.375E+03  2.359E+03 
   3.00000E-03  8.311E+02  8.244E+02 
   4.00000E-03  3.865E+02  3.820E+02 
   5.00000E-03  2.118E+02  2.082E+02 
   6.00000E-03  1.290E+02  1.261E+02 
   8.00000E-03  5.875E+01  5.660E+01 
   9.65860E-03  3.505E+01  3.332E+01 
K  9.65860E-03  2.536E+02  1.599E+02 
   1.00000E-02  2.331E+02  1.497E+02 
   1.50000E-02  8.117E+01  6.099E+01 
   2.00000E-02  3.719E+01  2.986E+01 
   3.00000E-02  1.207E+01  1.018E+01 
   4.00000E-02  5.384E+00  4.570E+00 
   5.00000E-02  2.892E+00  2.419E+00 
   6.00000E-02  1.760E+00  1.429E+00 
   8.00000E-02  8.364E-01  6.203E-01 
   1.00000E-01  4.973E-01  3.278E-01 
   1.50000E-01  2.341E-01  1.128E-01 
   2.00000E-01  1.617E-01  6.225E-02 
   3.00000E-01  1.141E-01  3.764E-02 
   4.00000E-01  9.539E-02  3.195E-02 
   5.00000E-01  8.450E-02  2.979E-02 
   6.00000E-01  7.695E-02  2.861E-02 
   8.00000E-01  6.656E-02  2.704E-02 
   1.00000E+00  5.941E-02  2.580E-02 
   1.25000E+00  5.296E-02  2.443E-02 
   1.50000E+00  4.834E-02  2.329E-02 
   2.00000E+00  4.235E-02  2.174E-02 
   3.00000E+00  3.634E-02  2.041E-02 
   4.00000E+00  3.360E-02  2.014E-02 
   5.00000E+00  3.225E-02  2.028E-02 
   6.00000E+00  3.160E-02  2.061E-02 
   8.00000E+00  3.138E-02  2.143E-02 
   1.00000E+01  3.175E-02  2.223E-02 
   1.50000E+01  3.335E-02  2.367E-02 
   2.00000E+01  3.509E-02  2.451E-02
#
Gallium
Z = 31 

ASCII format
____________________________________

     Energy       μ/ρ        μen/ρ 
      (MeV)      (cm2/g)     (cm2/g)
____________________________________

   1.00000E-03  1.697E+03  1.692E+03 
   1.05613E-03  1.492E+03  1.487E+03 
   1.11540E-03  1.312E+03  1.307E+03 
L3 1.11540E-03  3.990E+03  3.955E+03 
   1.12877E-03  4.887E+03  4.842E+03 
   1.14230E-03  5.664E+03  5.611E+03 
L2 1.14230E-03  7.405E+03  7.332E+03 
   1.21752E-03  7.138E+03  7.070E+03 
   1.29770E-03  6.358E+03  6.299E+03 
L1 1.29770E-03  7.206E+03  7.139E+03 
   1.50000E-03  5.087E+03  5.044E+03 
   2.00000E-03  2.515E+03  2.496E+03 
   3.00000E-03  8.857E+02  8.782E+02 
   4.00000E-03  4.130E+02  4.082E+02 
   5.00000E-03  2.266E+02  2.229E+02 
   6.00000E-03  1.382E+02  1.352E+02 
   8.00000E-03  6.302E+01  6.082E+01 
   1.00000E-02  3.421E+01  3.250E+01 
   1.03671E-02  3.099E+01  2.936E+01 
K  1.03671E-02  2.214E+02  1.344E+02 
   1.50000E-02  8.537E+01  6.135E+01 
   2.00000E-02  3.928E+01  3.059E+01 
   3.00000E-02  1.281E+01  1.061E+01 
   4.00000E-02  5.726E+00  4.810E+00 
   5.00000E-02  3.076E+00  2.560E+00 
   6.00000E-02  1.868E+00  1.518E+00 
   8.00000E-02  8.823E-01  6.613E-01 
   1.00000E-01  5.197E-01  3.497E-01 
   1.50000E-01  2.387E-01  1.193E-01 
   2.00000E-01  1.619E-01  6.463E-02 
   3.00000E-01  1.123E-01  3.782E-02 
   4.00000E-01  9.325E-02  3.156E-02 
   5.00000E-01  8.236E-02  2.920E-02 
   6.00000E-01  7.487E-02  2.793E-02 
   8.00000E-01  6.466E-02  2.631E-02 
   1.00000E+00  5.767E-02  2.506E-02 
   1.25000E+00  5.139E-02  2.371E-02 
   1.50000E+00  4.692E-02  2.260E-02 
   2.00000E+00  4.113E-02  2.110E-02 
   3.00000E+00  3.538E-02  1.986E-02 
   4.00000E+00  3.280E-02  1.966E-02 
   5.00000E+00  3.156E-02  1.985E-02 
   6.00000E+00  3.099E-02  2.021E-02 
   8.00000E+00  3.086E-02  2.108E-02 
   1.00000E+01  3.130E-02  2.191E-02 
   1.50000E+01  3.300E-02  2.339E-02 
   2.00000E+01  3.479E-02  2.425E-02 
#
Germanium
Z = 32 

ASCII format
____________________________________

     Energy       μ/ρ        μen/ρ 
      (MeV)      (cm2/g)     (cm2/g)
____________________________________

   1.00000E-03  1.893E+03  1.887E+03 
   1.10304E-03  1.502E+03  1.496E+03 
   1.21670E-03  1.190E+03  1.185E+03 
L3 1.21670E-03  4.389E+03  4.343E+03 
   1.23215E-03  4.734E+03  4.684E+03 
   1.24780E-03  4.974E+03  4.922E+03 
L2 1.24780E-03  6.698E+03  6.622E+03 
   1.32844E-03  6.348E+03  6.279E+03 
   1.41430E-03  5.554E+03  5.495E+03 
L1 1.41430E-03  6.287E+03  6.221E+03 
   1.50000E-03  5.475E+03  5.420E+03 
   2.00000E-03  2.711E+03  2.688E+03 
   3.00000E-03  9.613E+02  9.527E+02 
   4.00000E-03  4.497E+02  4.445E+02 
   5.00000E-03  2.472E+02  2.433E+02 
   6.00000E-03  1.509E+02  1.477E+02 
   8.00000E-03  6.890E+01  6.660E+01 
   1.00000E-02  3.742E+01  3.564E+01 
   1.11031E-02  2.811E+01  2.653E+01 
K  1.11031E-02  1.981E+02  1.157E+02 
   1.50000E-02  9.152E+01  6.256E+01 
   2.00000E-02  4.222E+01  3.178E+01 
   3.00000E-02  1.385E+01  1.126E+01 
   4.00000E-02  6.207E+00  5.152E+00 
   5.00000E-02  3.335E+00  2.759E+00 
   6.00000E-02  2.023E+00  1.642E+00 
   8.00000E-02  9.501E-01  7.184E-01 
   1.00000E-01  5.550E-01  3.803E-01 
   1.50000E-01  2.491E-01  1.288E-01 
   2.00000E-01  1.661E-01  6.865E-02 
   3.00000E-01  1.131E-01  3.891E-02 
   4.00000E-01  9.327E-02  3.193E-02 
   5.00000E-01  8.212E-02  2.930E-02 
   6.00000E-01  7.452E-02  2.790E-02 
   8.00000E-01  6.426E-02  2.618E-02 
   1.00000E+00  5.727E-02  2.489E-02 
   1.25000E+00  5.101E-02  2.353E-02 
   1.50000E+00  4.657E-02  2.242E-02 
   2.00000E+00  4.086E-02  2.094E-02 
   3.00000E+00  3.524E-02  1.977E-02 
   4.00000E+00  3.275E-02  1.962E-02 
   5.00000E+00  3.158E-02  1.987E-02 
   6.00000E+00  3.107E-02  2.027E-02 
   8.00000E+00  3.103E-02  2.120E-02 
   1.00000E+01  3.156E-02  2.208E-02 
   1.50000E+01  3.340E-02  2.364E-02 
   2.00000E+01  3.528E-02  2.452E-02 
#
Arsenic
Z = 33 

ASCII format
____________________________________

     Energy       μ/ρ        μen/ρ 
      (MeV)      (cm2/g)     (cm2/g)
____________________________________

   1.00000E-03  2.121E+03  2.116E+03 
   1.15026E-03  1.523E+03  1.517E+03 
   1.32310E-03  1.092E+03  1.087E+03 
L3 1.32310E-03  4.513E+03  4.459E+03 
   1.34073E-03  4.469E+03  4.416E+03 
   1.35860E-03  4.452E+03  4.398E+03 
L2 1.35860E-03  6.093E+03  6.015E+03 
   1.50000E-03  5.227E+03  5.164E+03 
   1.52650E-03  4.997E+03  4.938E+03 
L1 1.52650E-03  5.653E+03  5.585E+03 
   2.00000E-03  2.931E+03  2.902E+03 
   3.00000E-03  1.049E+03  1.039E+03 
   4.00000E-03  4.920E+02  4.862E+02 
   5.00000E-03  2.709E+02  2.667E+02 
   6.00000E-03  1.656E+02  1.622E+02 
   8.00000E-03  7.573E+01  7.330E+01 
   1.00000E-02  4.115E+01  3.928E+01 
   1.18667E-02  2.577E+01  2.425E+01 
K  1.18667E-02  1.792E+02  1.008E+02 
   1.50000E-02  9.856E+01  6.371E+01 
   2.00000E-02  4.564E+01  3.310E+01 
   3.00000E-02  1.506E+01  1.198E+01 
   4.00000E-02  6.760E+00  5.537E+00 
   5.00000E-02  3.635E+00  2.983E+00 
   6.00000E-02  2.203E+00  1.783E+00 
   8.00000E-02  1.030E+00  7.837E-01 
   1.00000E-01  5.971E-01  4.155E-01 
   1.50000E-01  2.622E-01  1.399E-01 
   2.00000E-01  1.719E-01  7.350E-02 
   3.00000E-01  1.150E-01  4.043E-02 
   4.00000E-01  9.414E-02  3.261E-02 
   5.00000E-01  8.259E-02  2.966E-02 
   6.00000E-01  7.483E-02  2.813E-02 
   8.00000E-01  6.440E-02  2.628E-02 
   1.00000E+00  5.735E-02  2.494E-02 
   1.25000E+00  5.106E-02  2.355E-02 
   1.50000E+00  4.661E-02  2.243E-02 
   2.00000E+00  4.093E-02  2.096E-02 
   3.00000E+00  3.539E-02  1.984E-02 
   4.00000E+00  3.296E-02  1.974E-02 
   5.00000E+00  3.187E-02  2.005E-02 
   6.00000E+00  3.141E-02  2.049E-02 
   8.00000E+00  3.146E-02  2.148E-02 
   1.00000E+01  3.207E-02  2.241E-02 
   1.50000E+01  3.405E-02  2.404E-02 
   2.00000E+01  3.603E-02  2.495E-02
#
Selenium
Z = 34 

ASCII format
____________________________________

     Energy       μ/ρ        μen/ρ 
      (MeV)      (cm2/g)     (cm2/g)
____________________________________

   1.00000E-03  2.317E+03  2.312E+03 
   1.19825E-03  1.512E+03  1.506E+03 
   1.43580E-03  9.814E+02  9.760E+02 
L3 1.43580E-03  4.347E+03  4.287E+03 
   1.45586E-03  4.057E+03  4.002E+03 
   1.47620E-03  3.907E+03  3.855E+03 
L2 1.47620E-03  5.186E+03  5.112E+03 
   1.50000E-03  5.336E+03  5.260E+03 
   1.65390E-03  4.342E+03  4.284E+03 
L1 1.65390E-03  4.915E+03  4.849E+03 
   2.00000E-03  3.098E+03  3.062E+03 
   3.00000E-03  1.116E+03  1.104E+03 
   4.00000E-03  5.252E+02  5.187E+02 
   5.00000E-03  2.896E+02  2.851E+02 
   6.00000E-03  1.773E+02  1.737E+02 
   8.00000E-03  8.116E+01  7.865E+01 
   1.00000E-02  4.414E+01  4.221E+01 
   1.26578E-02  2.318E+01  2.173E+01 
K  1.26578E-02  1.589E+02  8.599E+01 
   1.50000E-02  1.033E+02  6.270E+01 
   2.00000E-02  4.818E+01  3.352E+01 
   3.00000E-02  1.596E+01  1.240E+01 
   4.00000E-02  7.184E+00  5.796E+00 
   5.00000E-02  3.864E+00  3.143E+00 
   6.00000E-02  2.341E+00  1.886E+00 
   8.00000E-02  1.090E+00  8.332E-01 
   1.00000E-01  6.278E-01  4.426E-01 
   1.50000E-01  2.703E-01  1.483E-01 
   2.00000E-01  1.742E-01  7.695E-02 
   3.00000E-01  1.144E-01  4.113E-02 
   4.00000E-01  9.299E-02  3.261E-02 
   5.00000E-01  8.129E-02  2.941E-02 
   6.00000E-01  7.350E-02  2.775E-02 
   8.00000E-01  6.314E-02  2.581E-02 
   1.00000E+00  5.619E-02  2.446E-02 
   1.25000E+00  4.999E-02  2.306E-02 
   1.50000E+00  4.564E-02  2.195E-02 
   2.00000E+00  4.010E-02  2.052E-02 
   3.00000E+00  3.476E-02  1.947E-02 
   4.00000E+00  3.247E-02  1.944E-02 
   5.00000E+00  3.145E-02  1.978E-02 
   6.00000E+00  3.105E-02  2.025E-02 
   8.00000E+00  3.119E-02  2.130E-02 
   1.00000E+01  3.186E-02  2.226E-02 
   1.50000E+01  3.395E-02  2.394E-02 
   2.00000E+01  3.599E-02  2.487E-02 
#
Bromine
Z = 35 

ASCII format
____________________________________

     Energy       μ/ρ        μen/ρ 
      (MeV)      (cm2/g)     (cm2/g)
____________________________________

   1.00000E-03  2.624E+03  2.618E+03 
   1.50000E-03  1.002E+03  9.964E+02 
   1.54990E-03  9.255E+02  9.200E+02 
L3 1.54990E-03  4.289E+03  4.223E+03 
   1.57278E-03  3.838E+03  3.780E+03 
   1.59600E-03  3.587E+03  3.534E+03 
L2 1.59600E-03  5.097E+03  5.014E+03 
   1.68644E-03  4.595E+03  4.523E+03 
   1.78200E-03  3.969E+03  3.910E+03 
L1 1.78200E-03  4.495E+03  4.427E+03 
   2.00000E-03  3.407E+03  3.360E+03 
   3.00000E-03  1.231E+03  1.216E+03 
   4.00000E-03  5.815E+02  5.740E+02 
   5.00000E-03  3.213E+02  3.163E+02 
   6.00000E-03  1.968E+02  1.930E+02 
   8.00000E-03  9.026E+01  8.756E+01 
   1.00000E-02  4.912E+01  4.706E+01 
   1.34737E-02  2.176E+01  2.033E+01 
K  1.34737E-02  1.471E+02  7.668E+01 
   1.50000E-02  1.119E+02  6.336E+01 
   2.00000E-02  5.266E+01  3.502E+01 
   3.00000E-02  1.753E+01  1.328E+01 
   4.00000E-02  7.900E+00  6.267E+00 
   5.00000E-02  4.264E+00  3.431E+00 
   6.00000E-02  2.582E+00  2.068E+00 
   8.00000E-02  1.198E+00  9.185E-01 
   1.00000E-01  6.861E-01  4.890E-01 
   1.50000E-01  2.899E-01  1.634E-01 
   2.00000E-01  1.838E-01  8.378E-02 
   3.00000E-01  1.186E-01  4.360E-02 
   4.00000E-01  9.563E-02  3.398E-02 
   5.00000E-01  8.328E-02  3.036E-02 
   6.00000E-01  7.515E-02  2.851E-02 
   8.00000E-01  6.443E-02  2.640E-02 
   1.00000E+00  5.728E-02  2.496E-02 
   1.25000E+00  5.094E-02  2.350E-02 
   1.50000E+00  4.650E-02  2.237E-02 
   2.00000E+00  4.089E-02  2.092E-02 
   3.00000E+00  3.552E-02  1.991E-02 
   4.00000E+00  3.327E-02  1.995E-02 
   5.00000E+00  3.229E-02  2.036E-02 
   6.00000E+00  3.194E-02  2.090E-02 
   8.00000E+00  3.218E-02  2.207E-02 
   1.00000E+01  3.293E-02  2.314E-02 
   1.50000E+01  3.521E-02  2.507E-02 
   2.00000E+01  3.738E-02  2.618E-02 
#
Krypton
Z = 36 

ASCII format
____________________________________

     Energy       μ/ρ        μen/ρ 
      (MeV)      (cm2/g)     (cm2/g)
____________________________________

   1.00000E-03  2.854E+03  2.848E+03 
   1.50000E-03  1.093E+03  1.087E+03 
   1.67490E-03  8.361E+02  8.305E+02 
L3 1.67490E-03  3.909E+03  3.842E+03 
   1.70085E-03  3.409E+03  3.352E+03 
   1.72720E-03  3.166E+03  3.114E+03 
L2 1.72720E-03  4.566E+03  4.484E+03 
   1.82152E-03  4.014E+03  3.945E+03 
   1.92100E-03  3.482E+03  3.425E+03 
L1 1.92100E-03  3.948E+03  3.882E+03 
   2.00000E-03  3.599E+03  3.541E+03 
   3.00000E-03  1.305E+03  1.288E+03 
   4.00000E-03  6.186E+02  6.101E+02 
   5.00000E-03  3.425E+02  3.371E+02 
   6.00000E-03  2.101E+02  2.060E+02 
   8.00000E-03  9.651E+01  9.371E+01 
   1.00000E-02  5.257E+01  5.044E+01 
   1.43256E-02  1.971E+01  1.836E+01 
K  1.43256E-02  1.313E+02  6.604E+01 
   1.50000E-02  1.168E+02  6.112E+01 
   2.00000E-02  5.548E+01  3.509E+01 
   3.00000E-02  1.854E+01  1.365E+01 
   4.00000E-02  8.389E+00  6.538E+00 
   5.00000E-02  4.523E+00  3.596E+00 
   6.00000E-02  2.739E+00  2.178E+00 
   8.00000E-02  1.267E+00  9.729E-01 
   1.00000E-01  7.221E-01  5.192E-01 
   1.50000E-01  2.998E-01  1.731E-01 
   2.00000E-01  1.872E-01  8.787E-02 
   3.00000E-01  1.186E-01  4.459E-02 
   4.00000E-01  9.480E-02  3.414E-02 
   5.00000E-01  8.226E-02  3.023E-02 
   6.00000E-01  7.410E-02  2.825E-02 
   8.00000E-01  6.340E-02  2.603E-02 
   1.00000E+00  5.631E-02  2.456E-02 
   1.25000E+00  5.005E-02  2.310E-02 
   1.50000E+00  4.569E-02  2.197E-02 
   2.00000E+00  4.020E-02  2.055E-02 
   3.00000E+00  3.501E-02  1.961E-02 
   4.00000E+00  3.286E-02  1.969E-02 
   5.00000E+00  3.196E-02  2.014E-02 
   6.00000E+00  3.168E-02  2.071E-02 
   8.00000E+00  3.199E-02  2.192E-02 
   1.00000E+01  3.280E-02  2.302E-02 
   1.50000E+01  3.518E-02  2.497E-02 
   2.00000E+01  3.741E-02  2.610E-02
#
Rubidium
Z = 37 

ASCII format
____________________________________

     Energy       μ/ρ        μen/ρ 
      (MeV)      (cm2/g)     (cm2/g)
____________________________________

   1.00000E-03  3.174E+03  3.168E+03 
   1.50000E-03  1.219E+03  1.213E+03 
   1.80440E-03  7.782E+02  7.726E+02 
L3 1.80440E-03  3.096E+03  3.040E+03 
   1.83391E-03  2.969E+03  2.915E+03 
   1.86390E-03  2.861E+03  2.810E+03 
L2 1.86390E-03  3.957E+03  3.880E+03 
   2.00000E-03  3.410E+03  3.347E+03 
   2.06510E-03  3.153E+03  3.096E+03 
L1 2.06510E-03  3.606E+03  3.540E+03 
   3.00000E-03  1.418E+03  1.397E+03 
   4.00000E-03  6.748E+02  6.648E+02 
   5.00000E-03  3.744E+02  3.682E+02 
   6.00000E-03  2.300E+02  2.255E+02 
   8.00000E-03  1.058E+02  1.028E+02 
   1.00000E-02  5.766E+01  5.541E+01 
   1.50000E-02  1.909E+01  1.775E+01 
   1.51997E-02  1.842E+01  1.709E+01 
K  1.51997E-02  1.208E+02  5.864E+01 
   2.00000E-02  5.980E+01  3.581E+01 
   3.00000E-02  2.009E+01  1.436E+01 
   4.00000E-02  9.112E+00  6.963E+00 
   5.00000E-02  4.918E+00  3.858E+00 
   6.00000E-02  2.979E+00  2.349E+00 
   8.00000E-02  1.375E+00  1.056E+00 
   1.00000E-01  7.799E-01  5.649E-01 
   1.50000E-01  3.187E-01  1.881E-01 
   2.00000E-01  1.960E-01  9.465E-02 
   3.00000E-01  1.219E-01  4.690E-02 
   4.00000E-01  9.670E-02  3.531E-02 
   5.00000E-01  8.360E-02  3.098E-02 
   6.00000E-01  7.510E-02  2.878E-02 
   8.00000E-01  6.412E-02  2.638E-02 
   1.00000E+00  5.689E-02  2.484E-02 
   1.25000E+00  5.053E-02  2.332E-02 
   1.50000E+00  4.613E-02  2.217E-02 
   2.00000E+00  4.061E-02  2.074E-02 
   3.00000E+00  3.545E-02  1.983E-02 
   4.00000E+00  3.335E-02  1.996E-02 
   5.00000E+00  3.250E-02  2.045E-02 
   6.00000E+00  3.227E-02  2.105E-02 
   8.00000E+00  3.267E-02  2.231E-02 
   1.00000E+01  3.357E-02  2.343E-02 
   1.50000E+01  3.610E-02  2.538E-02 
   2.00000E+01  3.845E-02  2.645E-02
#
Strontium
Z = 38 

ASCII format
____________________________________

     Energy       μ/ρ        μen/ρ 
      (MeV)      (cm2/g)     (cm2/g)
____________________________________

   1.00000E-03  3.494E+03  3.487E+03 
   1.50000E-03  1.347E+03  1.341E+03 
   1.93960E-03  7.207E+02  7.152E+02 
L3 1.93960E-03  2.864E+03  2.807E+03 
   2.00000E-03  2.589E+03  2.539E+03 
   2.00680E-03  2.571E+03  2.521E+03 
L2 2.00680E-03  3.577E+03  3.501E+03 
   2.10895E-03  3.201E+03  3.134E+03 
   2.21630E-03  2.842E+03  2.786E+03 
L1 2.21630E-03  3.241E+03  3.176E+03 
   3.00000E-03  1.525E+03  1.500E+03 
   4.00000E-03  7.297E+02  7.181E+02 
   5.00000E-03  4.058E+02  3.988E+02 
   6.00000E-03  2.496E+02  2.446E+02 
   8.00000E-03  1.150E+02  1.118E+02 
   1.00000E-02  6.274E+01  6.037E+01 
   1.50000E-02  2.079E+01  1.938E+01 
   1.61046E-02  1.714E+01  1.585E+01 
K  1.61046E-02  1.108E+02  5.200E+01 
   2.00000E-02  6.386E+01  3.602E+01 
   3.00000E-02  2.157E+01  1.493E+01 
   4.00000E-02  9.818E+00  7.346E+00 
   5.00000E-02  5.306E+00  4.103E+00 
   6.00000E-02  3.214E+00  2.511E+00 
   8.00000E-02  1.481E+00  1.135E+00 
   1.00000E-01  8.365E-01  6.093E-01 
   1.50000E-01  3.369E-01  2.028E-01 
   2.00000E-01  2.042E-01  1.013E-01 
   3.00000E-01  1.247E-01  4.906E-02 
   4.00000E-01  9.811E-02  3.634E-02 
   5.00000E-01  8.443E-02  3.156E-02 
   6.00000E-01  7.570E-02  2.917E-02 
   8.00000E-01  6.447E-02  2.660E-02 
   1.00000E+00  5.714E-02  2.498E-02 
   1.25000E+00  5.072E-02  2.342E-02 
   1.50000E+00  4.630E-02  2.225E-02 
   2.00000E+00  4.079E-02  2.082E-02 
   3.00000E+00  3.569E-02  1.995E-02 
   4.00000E+00  3.365E-02  2.013E-02 
   5.00000E+00  3.286E-02  2.066E-02 
   6.00000E+00  3.268E-02  2.130E-02 
   8.00000E+00  3.317E-02  2.260E-02 
   1.00000E+01  3.414E-02  2.377E-02 
   1.50000E+01  3.683E-02  2.578E-02 
   2.00000E+01  3.927E-02  2.684E-02
#
Yttrium
Z = 39 

ASCII format
____________________________________

     Energy       μ/ρ        μen/ρ 
      (MeV)      (cm2/g)     (cm2/g)
____________________________________

   1.00000E-03  3.864E+03  3.857E+03 
   1.50000E-03  1.493E+03  1.487E+03 
   2.00000E-03  7.422E+02  7.365E+02 
   2.08000E-03  6.738E+02  6.682E+02 
L3 2.08000E-03  2.627E+03  2.569E+03 
   2.11741E-03  2.466E+03  2.412E+03 
   2.15550E-03  2.342E+03  2.292E+03 
L2 2.15550E-03  3.264E+03  3.187E+03 
   2.26140E-03  2.916E+03  2.849E+03 
   2.37250E-03  2.597E+03  2.540E+03 
L1 2.37250E-03  2.962E+03  2.897E+03 
   3.00000E-03  1.654E+03  1.623E+03 
   4.00000E-03  7.936E+02  7.798E+02 
   5.00000E-03  4.424E+02  4.344E+02 
   6.00000E-03  2.725E+02  2.670E+02 
   8.00000E-03  1.258E+02  1.224E+02 
   1.00000E-02  6.871E+01  6.619E+01 
   1.50000E-02  2.279E+01  2.130E+01 
   1.70384E-02  1.612E+01  1.486E+01 
K  1.70384E-02  1.029E+02  4.672E+01 
   2.00000E-02  6.855E+01  3.620E+01 
   3.00000E-02  2.330E+01  1.558E+01 
   4.00000E-02  1.065E+01  7.790E+00 
   5.00000E-02  5.764E+00  4.388E+00 
   6.00000E-02  3.493E+00  2.699E+00 
   8.00000E-02  1.607E+00  1.228E+00 
   1.00000E-01  9.047E-01  6.616E-01 
   1.50000E-01  3.595E-01  2.203E-01 
   2.00000E-01  2.149E-01  1.093E-01 
   3.00000E-01  1.289E-01  5.186E-02 
   4.00000E-01  1.006E-01  3.779E-02 
   5.00000E-01  8.613E-02  3.249E-02 
   6.00000E-01  7.703E-02  2.986E-02 
   8.00000E-01  6.546E-02  2.708E-02 
   1.00000E+00  5.795E-02  2.537E-02 
   1.25000E+00  5.141E-02  2.375E-02 
   1.50000E+00  4.692E-02  2.254E-02 
   2.00000E+00  4.137E-02  2.109E-02 
   3.00000E+00  3.628E-02  2.026E-02 
   4.00000E+00  3.428E-02  2.048E-02 
   5.00000E+00  3.355E-02  2.107E-02 
   6.00000E+00  3.341E-02  2.174E-02 
   8.00000E+00  3.399E-02  2.311E-02 
   1.00000E+01  3.504E-02  2.432E-02 
   1.50000E+01  3.790E-02  2.638E-02 
   2.00000E+01  4.048E-02  2.746E-02
#
Zirconium
Z = 40 

ASCII format
____________________________________

     Energy       μ/ρ        μen/ρ 
      (MeV)      (cm2/g)     (cm2/g)
____________________________________

   1.00000E-03  4.210E+03  4.203E+03 
   1.50000E-03  1.631E+03  1.625E+03 
   2.00000E-03  8.115E+02  8.057E+02 
   2.22230E-03  6.258E+02  6.201E+02 
L3 2.22230E-03  2.392E+03  2.335E+03 
   2.26411E-03  2.239E+03  2.186E+03 
   2.30670E-03  2.120E+03  2.071E+03 
L2 2.30670E-03  2.953E+03  2.878E+03 
   2.41654E-03  2.641E+03  2.575E+03 
   2.53160E-03  2.359E+03  2.303E+03 
L1 2.53160E-03  2.691E+03  2.627E+03 
   3.00000E-03  1.772E+03  1.734E+03 
   4.00000E-03  8.507E+02  8.344E+02 
   5.00000E-03  4.755E+02  4.664E+02 
   6.00000E-03  2.935E+02  2.873E+02 
   8.00000E-03  1.356E+02  1.320E+02 
   1.00000E-02  7.417E+01  7.150E+01 
   1.50000E-02  2.463E+01  2.308E+01 
   1.79976E-02  1.501E+01  1.380E+01 
K  1.79976E-02  9.470E+01  4.164E+01 
   2.00000E-02  7.237E+01  3.555E+01 
   3.00000E-02  2.485E+01  1.600E+01 
   4.00000E-02  1.139E+01  8.129E+00 
   5.00000E-02  6.173E+00  4.621E+00 
   6.00000E-02  3.744E+00  2.859E+00 
   8.00000E-02  1.721E+00  1.310E+00 
   1.00000E-01  9.658E-01  7.080E-01 
   1.50000E-01  3.790E-01  2.361E-01 
   2.00000E-01  2.237E-01  1.164E-01 
   3.00000E-01  1.318E-01  5.420E-02 
   4.00000E-01  1.018E-01  3.885E-02 
   5.00000E-01  8.693E-02  3.311E-02 
   6.00000E-01  7.756E-02  3.025E-02 
   8.00000E-01  6.571E-02  2.726E-02 
   1.00000E+00  5.810E-02  2.547E-02 
   1.25000E+00  5.150E-02  2.380E-02 
   1.50000E+00  4.700E-02  2.257E-02 
   2.00000E+00  4.146E-02  2.112E-02 
   3.00000E+00  3.644E-02  2.033E-02 
   4.00000E+00  3.451E-02  2.061E-02 
   5.00000E+00  3.384E-02  2.123E-02 
   6.00000E+00  3.374E-02  2.193E-02 
   8.00000E+00  3.441E-02  2.335E-02 
   1.00000E+01  3.554E-02  2.460E-02 
   1.50000E+01  3.855E-02  2.670E-02 
   2.00000E+01  4.122E-02  2.778E-02
#
Niobium
Z = 41 

ASCII format
____________________________________

     Energy       μ/ρ        μen/ρ 
      (MeV)      (cm2/g)     (cm2/g)
____________________________________

   1.00000E-03  4.600E+03  4.592E+03 
   1.50000E-03  1.786E+03  1.780E+03 
   2.00000E-03  8.893E+02  8.832E+02 
   2.37050E-03  5.844E+02  5.786E+02 
L3 2.37050E-03  2.181E+03  2.125E+03 
   2.41714E-03  2.045E+03  1.992E+03 
   2.46470E-03  1.935E+03  1.886E+03 
L2 2.46470E-03  2.694E+03  2.619E+03 
   2.57857E-03  2.412E+03  2.347E+03 
   2.69770E-03  2.161E+03  2.104E+03 
L1 2.69770E-03  2.470E+03  2.405E+03 
   3.00000E-03  1.906E+03  1.859E+03 
   4.00000E-03  9.164E+02  8.970E+02 
   5.00000E-03  5.134E+02  5.027E+02 
   6.00000E-03  3.172E+02  3.103E+02 
   8.00000E-03  1.469E+02  1.429E+02 
   1.00000E-02  8.038E+01  7.754E+01 
   1.50000E-02  2.672E+01  2.508E+01 
   1.89856E-02  1.409E+01  1.291E+01 
K  1.89856E-02  8.784E+01  3.746E+01 
   2.00000E-02  7.712E+01  3.493E+01 
   3.00000E-02  2.666E+01  1.648E+01 
   4.00000E-02  1.223E+01  8.511E+00 
   5.00000E-02  6.644E+00  4.884E+00 
   6.00000E-02  4.032E+00  3.040E+00 
   8.00000E-02  1.852E+00  1.403E+00 
   1.00000E-01  1.037E+00  7.608E-01 
   1.50000E-01  4.023E-01  2.542E-01 
   2.00000E-01  2.344E-01  1.247E-01 
   3.00000E-01  1.357E-01  5.705E-02 
   4.00000E-01  1.040E-01  4.026E-02 
   5.00000E-01  8.831E-02  3.396E-02 
   6.00000E-01  7.858E-02  3.085E-02 
   8.00000E-01  6.642E-02  2.764E-02 
   1.00000E+00  5.866E-02  2.575E-02 
   1.25000E+00  5.196E-02  2.402E-02 
   1.50000E+00  4.741E-02  2.276E-02 
   2.00000E+00  4.185E-02  2.130E-02 
   3.00000E+00  3.686E-02  2.054E-02 
   4.00000E+00  3.498E-02  2.086E-02 
   5.00000E+00  3.436E-02  2.153E-02 
   6.00000E+00  3.432E-02  2.227E-02 
   8.00000E+00  3.508E-02  2.375E-02 
   1.00000E+01  3.628E-02  2.503E-02 
   1.50000E+01  3.944E-02  2.718E-02 
   2.00000E+01  4.224E-02  2.828E-02
#
Molybdenum
Z = 42 

ASCII format
____________________________________

     Energy       μ/ρ        μen/ρ 
      (MeV)      (cm2/g)     (cm2/g)
____________________________________

   1.00000E-03  4.942E+03  4.935E+03 
   1.50000E-03  1.925E+03  1.918E+03 
   2.00000E-03  9.593E+02  9.531E+02 
   2.52020E-03  5.415E+02  5.358E+02 
L3 2.52020E-03  1.979E+03  1.924E+03 
   2.57212E-03  1.854E+03  1.802E+03 
   2.62510E-03  1.750E+03  1.703E+03 
L2 2.62510E-03  2.433E+03  2.360E+03 
   2.74267E-03  2.183E+03  2.119E+03 
   2.86550E-03  1.961E+03  1.906E+03 
L1 2.86550E-03  2.243E+03  2.179E+03 
   3.00000E-03  2.011E+03  1.956E+03 
   4.00000E-03  9.703E+02  9.475E+02 
   5.00000E-03  5.450E+02  5.328E+02 
   6.00000E-03  3.373E+02  3.295E+02 
   8.00000E-03  1.565E+02  1.522E+02 
   1.00000E-02  8.576E+01  8.275E+01 
   1.50000E-02  2.854E+01  2.684E+01 
   1.99995E-02  1.308E+01  1.193E+01 
K  1.99995E-02  8.055E+01  3.293E+01 
   2.00000E-02  8.054E+01  3.336E+01 
   3.00000E-02  2.810E+01  1.664E+01 
   4.00000E-02  1.294E+01  8.757E+00 
   5.00000E-02  7.037E+00  5.074E+00 
   6.00000E-02  4.274E+00  3.178E+00 
   8.00000E-02  1.962E+00  1.477E+00 
   1.00000E-01  1.096E+00  8.042E-01 
   1.50000E-01  4.208E-01  2.693E-01 
   2.00000E-01  2.423E-01  1.316E-01 
   3.00000E-01  1.379E-01  5.919E-02 
   4.00000E-01  1.047E-01  4.117E-02 
   5.00000E-01  8.848E-02  3.437E-02 
   6.00000E-01  7.851E-02  3.104E-02 
   8.00000E-01  6.619E-02  2.764E-02 
   1.00000E+00  5.837E-02  2.567E-02 
   1.25000E+00  5.167E-02  2.390E-02 
   1.50000E+00  4.713E-02  2.263E-02 
   2.00000E+00  4.163E-02  2.118E-02 
   3.00000E+00  3.675E-02  2.046E-02 
   4.00000E+00  3.496E-02  2.084E-02 
   5.00000E+00  3.439E-02  2.153E-02 
   6.00000E+00  3.440E-02  2.231E-02 
   8.00000E+00  3.523E-02  2.382E-02 
   1.00000E+01  3.650E-02  2.513E-02 
   1.50000E+01  3.978E-02  2.731E-02 
   2.00000E+01  4.264E-02  2.840E-02
#   
Ruthenium
Z = 44 

ASCII format
____________________________________

     Energy       μ/ρ        μen/ρ 
      (MeV)      (cm2/g)     (cm2/g)
____________________________________

   1.00000E-03  5.718E+03  5.709E+03 
   1.50000E-03  2.240E+03  2.233E+03 
   2.00000E-03  1.120E+03  1.113E+03 
   2.83790E-03  4.704E+02  4.646E+02 
L3 2.83790E-03  1.644E+03  1.591E+03 
   2.90168E-03  1.542E+03  1.492E+03 
   2.96690E-03  1.452E+03  1.407E+03 
L2 2.96690E-03  2.317E+03  2.233E+03 
   3.00000E-03  1.963E+03  1.894E+03 
   3.22400E-03  1.638E+03  1.584E+03 
L1 3.22400E-03  1.874E+03  1.811E+03 
   4.00000E-03  1.095E+03  1.063E+03 
   5.00000E-03  6.165E+02  6.000E+02 
   6.00000E-03  3.832E+02  3.731E+02 
   8.00000E-03  1.785E+02  1.733E+02 
   1.00000E-02  9.800E+01  9.456E+01 
   1.50000E-02  3.270E+01  3.085E+01 
   2.00000E-02  1.499E+01  1.376E+01 
   2.21172E-02  1.143E+01  1.035E+01 
K  2.21172E-02  6.876E+01  2.700E+01 
   3.00000E-02  3.139E+01  1.689E+01 
   4.00000E-02  1.452E+01  9.251E+00 
   5.00000E-02  7.926E+00  5.477E+00 
   6.00000E-02  4.822E+00  3.476E+00 
   8.00000E-02  2.215E+00  1.641E+00 
   1.00000E-01  1.232E+00  9.012E-01 
   1.50000E-01  4.647E-01  3.037E-01 
   2.00000E-01  2.618E-01  1.475E-01 
   3.00000E-01  1.440E-01  6.445E-02 
   4.00000E-01  1.074E-01  4.355E-02 
   5.00000E-01  8.992E-02  3.567E-02 
   6.00000E-01  7.933E-02  3.182E-02 
   8.00000E-01  6.647E-02  2.796E-02 
   1.00000E+00  5.846E-02  2.581E-02 
   1.25000E+00  5.166E-02  2.393E-02 
   1.50000E+00  4.710E-02  2.262E-02 
   2.00000E+00  4.164E-02  2.115E-02 
   3.00000E+00  3.692E-02  2.052E-02 
   4.00000E+00  3.527E-02  2.098E-02 
   5.00000E+00  3.482E-02  2.176E-02 
   6.00000E+00  3.491E-02  2.259E-02 
   8.00000E+00  3.591E-02  2.419E-02 
   1.00000E+01  3.730E-02  2.556E-02 
   1.50000E+01  4.084E-02  2.783E-02 
   2.00000E+01  4.387E-02  2.893E-02
#
Rhodium
Z = 45 

ASCII format
____________________________________

     Energy       μ/ρ        μen/ρ 
      (MeV)      (cm2/g)     (cm2/g)
____________________________________

   1.00000E-03  6.169E+03  6.160E+03 
   1.50000E-03  2.426E+03  2.419E+03 
   2.00000E-03  1.214E+03  1.207E+03 
   3.00000E-03  4.441E+02  4.382E+02 
   3.00380E-03  4.427E+02  4.368E+02 
L3 3.00380E-03  1.513E+03  1.461E+03 
   3.07413E-03  1.422E+03  1.372E+03 
   3.14610E-03  1.337E+03  1.292E+03 
L2 3.14610E-03  1.847E+03  1.777E+03 
   3.27631E-03  1.671E+03  1.608E+03 
   3.41190E-03  1.512E+03  1.458E+03 
L1 3.41190E-03  1.731E+03  1.669E+03 
   4.00000E-03  1.170E+03  1.132E+03 
   5.00000E-03  6.589E+02  6.396E+02 
   6.00000E-03  4.101E+02  3.985E+02 
   8.00000E-03  1.915E+02  1.857E+02 
   1.00000E-02  1.053E+02  1.015E+02 
   1.50000E-02  3.518E+01  3.322E+01 
   2.00000E-02  1.613E+01  1.484E+01 
   2.32199E-02  1.079E+01  9.736E+00 
K  2.32199E-02  6.414E+01  2.458E+01 
   3.00000E-02  3.330E+01  1.699E+01 
   4.00000E-02  1.544E+01  9.520E+00 
   5.00000E-02  8.448E+00  5.706E+00 
   6.00000E-02  5.147E+00  3.649E+00 
   8.00000E-02  2.365E+00  1.737E+00 
   1.00000E-01  1.314E+00  9.581E-01 
   1.50000E-01  4.916E-01  3.241E-01 
   2.00000E-01  2.742E-01  1.571E-01 
   3.00000E-01  1.485E-01  6.776E-02 
   4.00000E-01  1.097E-01  4.517E-02 
   5.00000E-01  9.134E-02  3.663E-02 
   6.00000E-01  8.035E-02  3.247E-02 
   8.00000E-01  6.711E-02  2.834E-02 
   1.00000E+00  5.894E-02  2.608E-02 
   1.25000E+00  5.204E-02  2.413E-02 
   1.50000E+00  4.744E-02  2.278E-02 
   2.00000E+00  4.197E-02  2.131E-02 
   3.00000E+00  3.728E-02  2.071E-02 
   4.00000E+00  3.568E-02  2.122E-02 
   5.00000E+00  3.529E-02  2.204E-02 
   6.00000E+00  3.542E-02  2.290E-02 
   8.00000E+00  3.650E-02  2.456E-02 
   1.00000E+01  3.797E-02  2.597E-02 
   1.50000E+01  4.166E-02  2.831E-02 
   2.00000E+01  4.481E-02  2.943E-02
#
Palladium
Z = 46 

ASCII format
____________________________________

     Energy       μ/ρ        μen/ρ 
      (MeV)      (cm2/g)     (cm2/g)
____________________________________

   1.00000E-03  6.538E+03  6.529E+03 
   1.50000E-03  2.579E+03  2.571E+03 
   2.00000E-03  1.292E+03  1.285E+03 
   3.00000E-03  4.730E+02  4.668E+02 
   3.17330E-03  4.106E+02  4.047E+02 
L3 3.17330E-03  1.355E+03  1.305E+03 
   3.25085E-03  1.287E+03  1.238E+03 
   3.33030E-03  1.215E+03  1.171E+03 
L2 3.33030E-03  1.664E+03  1.597E+03 
   3.46459E-03  1.518E+03  1.456E+03 
   3.60430E-03  1.379E+03  1.326E+03 
L1 3.60430E-03  1.582E+03  1.520E+03 
   4.00000E-03  1.227E+03  1.182E+03 
   5.00000E-03  6.912E+02  6.688E+02 
   6.00000E-03  4.308E+02  4.175E+02 
   8.00000E-03  2.017E+02  1.953E+02 
   1.00000E-02  1.110E+02  1.070E+02 
   1.50000E-02  3.715E+01  3.511E+01 
   2.00000E-02  1.704E+01  1.571E+01 
   2.43503E-02  1.003E+01  9.016E+00 
K  2.43503E-02  5.898E+01  2.208E+01 
   3.00000E-02  3.465E+01  1.669E+01 
   4.00000E-02  1.614E+01  9.611E+00 
   5.00000E-02  8.850E+00  5.833E+00 
   6.00000E-02  5.399E+00  3.759E+00 
   8.00000E-02  2.481E+00  1.804E+00 
   1.00000E-01  1.377E+00  1.000E+00 
   1.50000E-01  5.115E-01  3.397E-01 
   2.00000E-01  2.827E-01  1.644E-01 
   3.00000E-01  1.506E-01  7.007E-02 
   4.00000E-01  1.103E-01  4.611E-02 
   5.00000E-01  9.134E-02  3.704E-02 
   6.00000E-01  8.010E-02  3.262E-02 
   8.00000E-01  6.669E-02  2.828E-02 
   1.00000E+00  5.849E-02  2.594E-02 
   1.25000E+00  5.159E-02  2.395E-02 
   1.50000E+00  4.702E-02  2.259E-02 
   2.00000E+00  4.162E-02  2.112E-02 
   3.00000E+00  3.704E-02  2.056E-02 
   4.00000E+00  3.552E-02  2.111E-02 
   5.00000E+00  3.518E-02  2.196E-02 
   6.00000E+00  3.537E-02  2.284E-02 
   8.00000E+00  3.651E-02  2.453E-02 
   1.00000E+01  3.802E-02  2.595E-02 
   1.50000E+01  4.181E-02  2.832E-02 
   2.00000E+01  4.501E-02  2.944E-02
#   
Silver
Z = 47 

ASCII format
____________________________________

     Energy       μ/ρ        μen/ρ 
      (MeV)      (cm2/g)     (cm2/g)
____________________________________

   1.00000E-03  7.039E+03  7.029E+03 
   1.50000E-03  2.790E+03  2.782E+03 
   2.00000E-03  1.401E+03  1.393E+03 
   3.00000E-03  5.136E+02  5.073E+02 
   3.35110E-03  3.887E+02  3.827E+02 
L3 3.35110E-03  1.274E+03  1.223E+03 
   3.43632E-03  1.200E+03  1.151E+03 
   3.52370E-03  1.126E+03  1.082E+03 
L2 3.52370E-03  1.547E+03  1.479E+03 
   3.66203E-03  1.409E+03  1.348E+03 
   3.80580E-03  1.282E+03  1.229E+03 
L1 3.80580E-03  1.468E+03  1.406E+03 
   4.00000E-03  1.305E+03  1.252E+03 
   5.00000E-03  7.385E+02  7.122E+02 
   6.00000E-03  4.610E+02  4.457E+02 
   8.00000E-03  2.164E+02  2.092E+02 
   1.00000E-02  1.193E+02  1.149E+02 
   1.50000E-02  3.998E+01  3.780E+01 
   2.00000E-02  1.836E+01  1.695E+01 
   2.55140E-02  9.527E+00  8.534E+00 
K  2.55140E-02  5.539E+01  2.031E+01 
   3.00000E-02  3.668E+01  1.660E+01 
   4.00000E-02  1.720E+01  9.869E+00 
   5.00000E-02  9.444E+00  6.066E+00 
   6.00000E-02  5.766E+00  3.938E+00 
   8.00000E-02  2.651E+00  1.907E+00 
   1.00000E-01  1.470E+00  1.062E+00 
   1.50000E-01  5.426E-01  3.622E-01 
   2.00000E-01  2.972E-01  1.751E-01 
   3.00000E-01  1.560E-01  7.392E-02 
   4.00000E-01  1.131E-01  4.803E-02 
   5.00000E-01  9.321E-02  3.822E-02 
   6.00000E-01  8.153E-02  3.347E-02 
   8.00000E-01  6.766E-02  2.881E-02 
   1.00000E+00  5.921E-02  2.632E-02 
   1.25000E+00  5.217E-02  2.425E-02 
   1.50000E+00  4.754E-02  2.284E-02 
   2.00000E+00  4.209E-02  2.135E-02 
   3.00000E+00  3.754E-02  2.082E-02 
   4.00000E+00  3.606E-02  2.142E-02 
   5.00000E+00  3.577E-02  2.232E-02 
   6.00000E+00  3.601E-02  2.324E-02 
   8.00000E+00  3.723E-02  2.499E-02 
   1.00000E+01  3.882E-02  2.647E-02 
   1.50000E+01  4.276E-02  2.889E-02 
   2.00000E+01  4.609E-02  3.005E-02
#
Cadmium
Z = 48 

ASCII format
____________________________________

     Energy       μ/ρ        μen/ρ 
      (MeV)      (cm2/g)     (cm2/g)
____________________________________

   1.00000E-03  7.350E+03  7.340E+03 
   1.50000E-03  2.931E+03  2.922E+03 
   2.00000E-03  1.473E+03  1.466E+03 
   3.00000E-03  5.414E+02  5.350E+02 
   3.53750E-03  3.575E+02  3.517E+02 
L3 3.53750E-03  1.152E+03  1.103E+03 
   3.63101E-03  1.083E+03  1.036E+03 
   3.72700E-03  1.013E+03  9.715E+02 
L2 3.72700E-03  1.389E+03  1.324E+03 
   4.00000E-03  1.170E+03  1.118E+03 
   4.01800E-03  1.157E+03  1.106E+03 
L1 4.01800E-03  1.324E+03  1.264E+03 
   5.00000E-03  7.685E+02  7.383E+02 
   6.00000E-03  4.793E+02  4.619E+02 
   8.00000E-03  2.254E+02  2.174E+02 
   1.00000E-02  1.244E+02  1.197E+02 
   1.50000E-02  4.178E+01  3.952E+01 
   2.00000E-02  1.920E+01  1.776E+01 
   2.67112E-02  8.809E+00  7.863E+00 
K  2.67112E-02  5.065E+01  1.821E+01 
   3.00000E-02  3.765E+01  1.594E+01 
   4.00000E-02  1.778E+01  9.812E+00 
   5.00000E-02  9.779E+00  6.115E+00 
   6.00000E-02  5.975E+00  4.001E+00 
   8.00000E-02  2.751E+00  1.957E+00 
   1.00000E-01  1.524E+00  1.096E+00 
   1.50000E-01  5.593E-01  3.753E-01 
   2.00000E-01  3.038E-01  1.813E-01 
   3.00000E-01  1.571E-01  7.580E-02 
   4.00000E-01  1.129E-01  4.868E-02 
   5.00000E-01  9.250E-02  3.838E-02 
   6.00000E-01  8.064E-02  3.339E-02 
   8.00000E-01  6.670E-02  2.854E-02 
   1.00000E+00  5.826E-02  2.597E-02 
   1.25000E+00  5.129E-02  2.387E-02 
   1.50000E+00  4.673E-02  2.247E-02 
   2.00000E+00  4.139E-02  2.099E-02 
   3.00000E+00  3.698E-02  2.051E-02 
   4.00000E+00  3.559E-02  2.114E-02 
   5.00000E+00  3.536E-02  2.206E-02 
   6.00000E+00  3.563E-02  2.300E-02 
   8.00000E+00  3.691E-02  2.477E-02 
   1.00000E+01  3.853E-02  2.625E-02 
   1.50000E+01  4.253E-02  2.869E-02 
   2.00000E+01  4.587E-02  2.985E-02 
#
Indium
Z = 49 

ASCII format
____________________________________

     Energy       μ/ρ        μen/ρ 
      (MeV)      (cm2/g)     (cm2/g)
____________________________________

   1.00000E-03  7.809E+03  7.797E+03 
   1.50000E-03  3.131E+03  3.122E+03 
   2.00000E-03  1.578E+03  1.570E+03 
   3.00000E-03  5.808E+02  5.743E+02 
   3.73010E-03  3.356E+02  3.298E+02 
L3 3.73010E-03  1.046E+03  9.989E+02 
   3.83264E-03  9.930E+02  9.465E+02 
   3.93800E-03  9.313E+02  8.905E+02 
L2 3.93800E-03  1.261E+03  1.199E+03 
   4.00000E-03  1.231E+03  1.170E+03 
   4.23750E-03  1.066E+03  1.016E+03 
L1 4.23750E-03  1.223E+03  1.164E+03 
   5.00000E-03  8.134E+02  7.780E+02 
   6.00000E-03  5.072E+02  4.871E+02 
   8.00000E-03  2.391E+02  2.301E+02 
   1.00000E-02  1.321E+02  1.269E+02 
   1.50000E-02  4.445E+01  4.206E+01 
   2.00000E-02  2.044E+01  1.893E+01 
   2.79399E-02  8.316E+00  7.395E+00 
K  2.79399E-02  4.733E+01  1.670E+01 
   3.00000E-02  3.949E+01  1.553E+01 
   4.00000E-02  1.873E+01  9.911E+00 
   5.00000E-02  1.030E+01  6.262E+00 
   6.00000E-02  6.306E+00  4.135E+00 
   8.00000E-02  2.907E+00  2.043E+00 
   1.00000E-01  1.609E+00  1.150E+00 
   1.50000E-01  5.876E-01  3.960E-01 
   2.00000E-01  3.167E-01  1.913E-01 
   3.00000E-01  1.614E-01  7.923E-02 
   4.00000E-01  1.149E-01  5.031E-02 
   5.00000E-01  9.371E-02  3.932E-02 
   6.00000E-01  8.138E-02  3.398E-02 
   8.00000E-01  6.707E-02  2.883E-02 
   1.00000E+00  5.849E-02  2.615E-02 
   1.25000E+00  5.144E-02  2.398E-02 
   1.50000E+00  4.684E-02  2.254E-02 
   2.00000E+00  4.151E-02  2.105E-02 
   3.00000E+00  3.715E-02  2.060E-02 
   4.00000E+00  3.582E-02  2.127E-02 
   5.00000E+00  3.564E-02  2.223E-02 
   6.00000E+00  3.596E-02  2.321E-02 
   8.00000E+00  3.730E-02  2.502E-02 
   1.00000E+01  3.898E-02  2.653E-02 
   1.50000E+01  4.311E-02  2.903E-02 
   2.00000E+01  4.654E-02  3.020E-02
#
Tin
Z = 50 

ASCII format
____________________________________

     Energy       μ/ρ        μen/ρ 
      (MeV)      (cm2/g)     (cm2/g)
____________________________________

   1.00000E-03  8.157E+03  8.144E+03 
   1.50000E-03  3.296E+03  3.287E+03 
   2.00000E-03  1.665E+03  1.657E+03 
   3.00000E-03  6.143E+02  6.077E+02 
   3.92880E-03  3.114E+02  3.058E+02 
L3 3.92880E-03  9.285E+02  8.845E+02 
   4.00000E-03  9.393E+02  8.945E+02 
   4.15610E-03  8.469E+02  8.074E+02 
L2 4.15610E-03  1.145E+03  1.084E+03 
   4.30764E-03  1.060E+03  1.002E+03 
   4.46470E-03  9.712E+02  9.221E+02 
L1 4.46470E-03  1.117E+03  1.059E+03 
   5.00000E-03  8.471E+02  8.064E+02 
   6.00000E-03  5.294E+02  5.065E+02 
   8.00000E-03  2.500E+02  2.400E+02 
   1.00000E-02  1.384E+02  1.327E+02 
   1.50000E-02  4.664E+01  4.413E+01 
   2.00000E-02  2.146E+01  1.990E+01 
   2.92001E-02  7.760E+00  6.876E+00 
K  2.92001E-02  4.360E+01  1.514E+01 
   3.00000E-02  4.121E+01  1.490E+01 
   4.00000E-02  1.942E+01  9.835E+00 
   5.00000E-02  1.070E+01  6.314E+00 
   6.00000E-02  6.564E+00  4.211E+00 
   8.00000E-02  3.029E+00  2.101E+00 
   1.00000E-01  1.676E+00  1.189E+00 
   1.50000E-01  6.091E-01  4.119E-01 
   2.00000E-01  3.260E-01  1.990E-01 
   3.00000E-01  1.639E-01  8.179E-02 
   4.00000E-01  1.156E-01  5.138E-02 
   5.00000E-01  9.374E-02  3.980E-02 
   6.00000E-01  8.113E-02  3.417E-02 
   8.00000E-01  6.662E-02  2.878E-02 
   1.00000E+00  5.800E-02  2.601E-02 
   1.25000E+00  5.095E-02  2.379E-02 
   1.50000E+00  4.638E-02  2.233E-02 
   2.00000E+00  4.112E-02  2.085E-02 
   3.00000E+00  3.686E-02  2.044E-02 
   4.00000E+00  3.561E-02  2.115E-02 
   5.00000E+00  3.548E-02  2.213E-02 
   6.00000E+00  3.583E-02  2.312E-02 
   8.00000E+00  3.724E-02  2.496E-02 
   1.00000E+01  3.895E-02  2.649E-02 
   1.50000E+01  4.315E-02  2.901E-02 
   2.00000E+01  4.662E-02  3.018E-02
#
Antimony
Z = 51 

ASCII format
____________________________________

     Energy       μ/ρ        μen/ρ 
      (MeV)      (cm2/g)     (cm2/g)
____________________________________

   1.00000E-03  8.582E+03  8.568E+03 
   1.50000E-03  3.491E+03  3.481E+03 
   2.00000E-03  1.767E+03  1.759E+03 
   3.00000E-03  6.536E+02  6.469E+02 
   4.00000E-03  3.169E+02  3.113E+02 
   4.13220E-03  2.918E+02  2.863E+02 
L3 4.13220E-03  8.691E+02  8.252E+02 
   4.25449E-03  8.308E+02  7.865E+02 
   4.38040E-03  7.776E+02  7.392E+02 
L2 4.38040E-03  1.050E+03  9.906E+02 
   4.53657E-03  9.743E+02  9.178E+02 
   4.69830E-03  8.939E+02  8.457E+02 
L1 4.69830E-03  1.029E+03  9.725E+02 
   5.00000E-03  8.846E+02  8.377E+02 
   6.00000E-03  5.569E+02  5.305E+02 
   8.00000E-03  2.631E+02  2.518E+02 
   1.00000E-02  1.459E+02  1.396E+02 
   1.50000E-02  4.923E+01  4.657E+01 
   2.00000E-02  2.268E+01  2.105E+01 
   3.00000E-02  7.631E+00  6.755E+00 
   3.04912E-02  7.307E+00  6.452E+00 
K  3.04912E-02  4.073E+01  1.391E+01 
   4.00000E-02  2.027E+01  9.789E+00 
   5.00000E-02  1.120E+01  6.400E+00 
   6.00000E-02  6.879E+00  4.311E+00 
   8.00000E-02  3.176E+00  2.173E+00 
   1.00000E-01  1.758E+00  1.237E+00 
   1.50000E-01  6.361E-01  4.312E-01 
   2.00000E-01  3.381E-01  2.084E-01 
   3.00000E-01  1.677E-01  8.504E-02 
   4.00000E-01  1.172E-01  5.288E-02 
   5.00000E-01  9.453E-02  4.061E-02 
   6.00000E-01  8.153E-02  3.465E-02 
   8.00000E-01  6.670E-02  2.896E-02 
   1.00000E+00  5.797E-02  2.608E-02 
   1.25000E+00  5.086E-02  2.378E-02 
   1.50000E+00  4.628E-02  2.230E-02 
   2.00000E+00  4.105E-02  2.081E-02 
   3.00000E+00  3.686E-02  2.043E-02 
   4.00000E+00  3.567E-02  2.118E-02 
   5.00000E+00  3.559E-02  2.219E-02 
   6.00000E+00  3.598E-02  2.321E-02 
   8.00000E+00  3.745E-02  2.509E-02 
   1.00000E+01  3.921E-02  2.664E-02 
   1.50000E+01  4.351E-02  2.920E-02 
   2.00000E+01  4.704E-02  3.038E-02 
#
Tellurium
Z = 52 

ASCII format
____________________________________

     Energy       μ/ρ        μen/ρ 
      (MeV)      (cm2/g)     (cm2/g)
____________________________________

   1.00000E-03  8.434E+03  8.419E+03 
   1.00300E-03  8.380E+03  8.365E+03 
   1.00600E-03  8.326E+03  8.311E+03 
M1 1.00600E-03  8.684E+03  8.668E+03 
   1.50000E-03  3.608E+03  3.598E+03 
   2.00000E-03  1.832E+03  1.824E+03 
   3.00000E-03  6.792E+02  6.726E+02 
   4.00000E-03  3.297E+02  3.240E+02 
   4.34140E-03  2.678E+02  2.625E+02 
L3 4.34140E-03  7.882E+02  7.460E+02 
   4.47465E-03  7.504E+02  7.078E+02 
   4.61200E-03  6.995E+02  6.629E+02 
L2 4.61200E-03  9.445E+02  8.880E+02 
   4.77280E-03  8.782E+02  8.237E+02 
   4.93920E-03  8.062E+02  7.600E+02 
L1 4.93920E-03  9.292E+02  8.744E+02 
   5.00000E-03  9.014E+02  8.487E+02 
   6.00000E-03  5.721E+02  5.423E+02 
   8.00000E-03  2.702E+02  2.578E+02 
   1.00000E-02  1.501E+02  1.433E+02 
   1.50000E-02  5.078E+01  4.802E+01 
   2.00000E-02  2.341E+01  2.175E+01 
   3.00000E-02  7.878E+00  6.997E+00 
   3.18138E-02  6.738E+00  5.929E+00 
K  3.18138E-02  3.719E+01  1.251E+01 
   4.00000E-02  2.064E+01  9.480E+00 
   5.00000E-02  1.145E+01  6.330E+00 
   6.00000E-02  7.041E+00  4.306E+00 
   8.00000E-02  3.255E+00  2.195E+00 
   1.00000E-01  1.801E+00  1.256E+00 
   1.50000E-01  6.492E-01  4.409E-01 
   2.00000E-01  3.429E-01  2.132E-01 
   3.00000E-01  1.679E-01  8.646E-02 
   4.00000E-01  1.163E-01  5.326E-02 
   5.00000E-01  9.328E-02  4.055E-02 
   6.00000E-01  8.022E-02  3.440E-02 
   8.00000E-01  6.538E-02  2.854E-02 
   1.00000E+00  5.669E-02  2.559E-02 
   1.25000E+00  4.967E-02  2.327E-02 
   1.50000E+00  4.518E-02  2.179E-02 
   2.00000E+00  4.009E-02  2.033E-02 
   3.00000E+00  3.606E-02  1.998E-02 
   4.00000E+00  3.494E-02  2.075E-02 
   5.00000E+00  3.492E-02  2.177E-02 
   6.00000E+00  3.534E-02  2.279E-02 
   8.00000E+00  3.683E-02  2.466E-02 
   1.00000E+01  3.860E-02  2.620E-02 
   1.50000E+01  4.290E-02  2.873E-02 
   2.00000E+01  4.642E-02  2.989E-02 
#
Iodine
Z = 53 

ASCII format
____________________________________

     Energy       μ/ρ        μen/ρ 
      (MeV)      (cm2/g)     (cm2/g)
____________________________________

   1.00000E-03  9.096E+03  9.078E+03 
   1.03542E-03  8.465E+03  8.448E+03 
   1.07210E-03  7.863E+03  7.847E+03 
M1 1.07210E-03  8.198E+03  8.181E+03 
   1.50000E-03  3.919E+03  3.908E+03 
   2.00000E-03  1.997E+03  1.988E+03 
   3.00000E-03  7.420E+02  7.351E+02 
   4.00000E-03  3.607E+02  3.548E+02 
   4.55710E-03  2.592E+02  2.537E+02 
L3 4.55710E-03  7.550E+02  7.121E+02 
   4.70229E-03  7.123E+02  6.724E+02 
   4.85210E-03  6.636E+02  6.270E+02 
L2 4.85210E-03  8.943E+02  8.375E+02 
   5.00000E-03  8.430E+02  7.903E+02 
   5.18810E-03  7.665E+02  7.198E+02 
L1 5.18810E-03  8.837E+02  8.283E+02 
   6.00000E-03  6.173E+02  5.822E+02 
   8.00000E-03  2.922E+02  2.777E+02 
   1.00000E-02  1.626E+02  1.548E+02 
   1.50000E-02  5.512E+01  5.208E+01 
   2.00000E-02  2.543E+01  2.363E+01 
   3.00000E-02  8.561E+00  7.622E+00 
   3.31694E-02  6.553E+00  5.744E+00 
K  3.31694E-02  3.582E+01  1.188E+01 
   4.00000E-02  2.210E+01  9.616E+00 
   5.00000E-02  1.232E+01  6.573E+00 
   6.00000E-02  7.579E+00  4.518E+00 
   8.00000E-02  3.510E+00  2.331E+00 
   1.00000E-01  1.942E+00  1.342E+00 
   1.50000E-01  6.978E-01  4.742E-01 
   2.00000E-01  3.663E-01  2.295E-01 
   3.00000E-01  1.771E-01  9.257E-02 
   4.00000E-01  1.217E-01  5.650E-02 
   5.00000E-01  9.701E-02  4.267E-02 
   6.00000E-01  8.313E-02  3.598E-02 
   8.00000E-01  6.749E-02  2.962E-02 
   1.00000E+00  5.841E-02  2.646E-02 
   1.25000E+00  5.111E-02  2.399E-02 
   1.50000E+00  4.647E-02  2.243E-02 
   2.00000E+00  4.124E-02  2.092E-02 
   3.00000E+00  3.716E-02  2.059E-02 
   4.00000E+00  3.607E-02  2.142E-02 
   5.00000E+00  3.608E-02  2.250E-02 
   6.00000E+00  3.655E-02  2.357E-02 
   8.00000E+00  3.815E-02  2.553E-02 
   1.00000E+01  4.002E-02  2.714E-02 
   1.50000E+01  4.455E-02  2.980E-02 
   2.00000E+01  4.823E-02  3.101E-02
#   