EXAMPLE AMIGOBrachy
c 
c SOURCE MODEL Ir-192 - SIMILAR NUCLETRON
c 
c Users should use this model as an example and perform a proper validation
c
c ---------------------------------------------------------------------------80
c Ir Core
  990   97  -22.42    -980 981 -982 :-983 984 :-985 -986        imp:e=1 imp:p=1
c
c capsule
  991   96  -8.0      -987 984 -988 #990                        imp:e=1 imp:p=1 
  992   96  -8.0      -989 -984                                 imp:e=1 imp:p=1 
  993   96  -8.0      -990 988 -991                             imp:e=1 imp:p=1
c 
c cable
  994   96  -4.81     -992 991 -993                             imp:e=1 imp:p=1 
c
c target - kerma
  99     0    -30 31 -32                                        imp:e=1 imp:p=1
c air
  998    0            -971  972 -973  #99  
                      #990 #991 #992  #993 #994                 imp:e=1 imp:p=1
c 
  999  0               971:-972:973                             imp:e=0 imp:p=0
c ---------------------------------------------------------------------------80  

c ---------------------------------------------------------------------------80
c
c target
  30  cz     5.0
  31  pz    99.9
  32  pz   100.1   
c
  980 cx   0.0325
  981 px  -0.1650
  982 px   0.1650
c
  983 sx  -0.165 0.0325
  984 px  -0.180
c
  985 sx   0.165 0.0325
  986 px   0.180
c
  987 cx   0.045
  988 px   0.235
c
  989 sq  2500  493.83 493.83  0 0 0  -1  -0.18  0.0 0.0
c
  990 kx 0.3025 0.44444444444 -1
  991 px 0.2500
c
  992 cx 0.035
  993 px 0.45
c
  971 cz  20.0
  972 pz -1.00
  973 pz  110.00
c ---------------------------------------------------------------------------80
c universe - air
  999 so 110
  
c ---------------------------------------------------------------------------80  
*f4:p 99 
c volume of the cell
 sd4 15.70796
c 
c air absorption coeficients - NIST
#  de4     df4
 0.0010000 3599.0000 
 0.0015000 1188.0000 
 0.0020000 526.20000 
 0.0030000 161.40000 
 0.0032028 133.00000
 0.0032029 146.00000
 0.0040000  76.36000 
 0.0050000  39.31000 
 0.0060000  22.70000
 0.0080000   9.44600
 0.0100000   4.74200
 0.0150000   1.33400
 0.0200000   0.53890
 0.0300000   0.15370
 0.0400000   0.06833        
 0.0500000   0.04098
 0.0600000   0.03041
 0.0800000   0.02407
 0.1000000   0.02325
 0.1500000   0.02496
 0.2000000   0.02672
 0.3000000   0.02872
 0.4000000   0.02949
 0.5000000   0.02966
 0.6000000   0.02953
 0.8000000   0.02882
 1.0000000   0.02789
 1.2500000   0.02666
 1.5000000   0.02547
 2.0000000   0.02672
c
c ---------------------------------------------------------------------------80                                                    
mode p                                                                          
sdef erg=d1 pos 0 0 0 cell=990 axs 1 0 0 par=2 rad=d3 ext=d4                      
c                                                                               
si1 l  0.061486 0.063000 0.065122 0.066831 0.071079 0.071414 
       0.073363 0.075368 0.075749 0.077831 0.110400 0.136343 
       0.176980 0.201311 0.205794 0.280270 0.283267 0.295957
       0.308455 0.316506 0.329170 0.374485 0.416469 0.420520
       0.468069 0.484575 0.485300 0.489060 0.588581 0.593490
       0.599410 0.604411 0.612462 0.703870 0.765800 0.884537
       1.061480 1.089900 1.378200
c 
sp1 d  1.200000 2.050000 2.630000 4.460000 0.241000 0.466000 
       0.163000 0.533000 1.025000 0.365000 0.012200 0.200000 
       0.004300 0.473000 3.340000 0.009000 0.266000 28.72000
       29.68000 82.71000 0.017400 0.726000 0.669000 0.069000
       47.81000 3.187000 0.002300 0.438000 4.517000 0.042100
       0.003900 8.200000 5.340000 0.005300 0.001300 0.291000
       0.053000 0.001200 0.001200
c
si3    0  0.0325
sp3   -21   1
c
si4 h -0.18 0.18       
sp4 d  0    1 
c                                                                               
c ---------------------------------------------------------------------------80
  m98     1000.  2           8000.  1
  m99     6000. -0.000125    7000. -0.755267    8000. -0.231781
         18000. -0.012827
  m96     6000. -0.000800   24000. -0.170000   26056. -0.650000  25000. -0.02 
         42097. -0.025000   28059. -0.120000   15000. -0.000450  14000. -0.01 
         16000. -0.000300 
  m97    77194.  1
c ---------------------------------------------------------------------------80
PHYS:P
prdmp j 3e+9 j j
dbcn    17j  1
print   30   110
nps     5e+8